<mxfile host="app.diagrams.net" modified="2021-11-27T11:46:12.252Z" agent="5.0 (Windows NT 10.0; Win64; x64) AppleWebKit/537.36 (KHTML, like Gecko) Chrome/96.0.4664.45 Safari/537.36" etag="24GMkDyoug9OqH1v_31D" version="15.8.6" type="gitlab" pages="13">
  <diagram id="C5RBs43oDa-KdzZeNtuy" name="Zadanie 1">
    <mxGraphModel dx="1038" dy="1716" grid="1" gridSize="10" guides="1" tooltips="1" connect="1" arrows="1" fold="1" page="1" pageScale="1" pageWidth="827" pageHeight="1169" math="0" shadow="0">
      <root>
        <mxCell id="WIyWlLk6GJQsqaUBKTNV-0" />
        <mxCell id="WIyWlLk6GJQsqaUBKTNV-1" parent="WIyWlLk6GJQsqaUBKTNV-0" />
        <mxCell id="WIyWlLk6GJQsqaUBKTNV-2" value="" style="rounded=0;html=1;jettySize=auto;orthogonalLoop=1;fontSize=11;endArrow=block;endFill=0;endSize=8;strokeWidth=1;shadow=0;labelBackgroundColor=none;edgeStyle=orthogonalEdgeStyle;" parent="WIyWlLk6GJQsqaUBKTNV-1" source="WIyWlLk6GJQsqaUBKTNV-3" target="WIyWlLk6GJQsqaUBKTNV-6" edge="1">
          <mxGeometry relative="1" as="geometry" />
        </mxCell>
        <mxCell id="WIyWlLk6GJQsqaUBKTNV-3" value="Computer nie dziala&amp;nbsp;" style="rounded=1;whiteSpace=wrap;html=1;fontSize=12;glass=0;strokeWidth=1;shadow=0;" parent="WIyWlLk6GJQsqaUBKTNV-1" vertex="1">
          <mxGeometry x="350" y="60" width="120" height="40" as="geometry" />
        </mxCell>
        <mxCell id="WIyWlLk6GJQsqaUBKTNV-4" value="Yes" style="rounded=0;html=1;jettySize=auto;orthogonalLoop=1;fontSize=11;endArrow=block;endFill=0;endSize=8;strokeWidth=1;shadow=0;labelBackgroundColor=none;edgeStyle=orthogonalEdgeStyle;" parent="WIyWlLk6GJQsqaUBKTNV-1" source="WIyWlLk6GJQsqaUBKTNV-6" target="WIyWlLk6GJQsqaUBKTNV-10" edge="1">
          <mxGeometry y="20" relative="1" as="geometry">
            <mxPoint as="offset" />
          </mxGeometry>
        </mxCell>
        <mxCell id="WIyWlLk6GJQsqaUBKTNV-5" value="No" style="edgeStyle=orthogonalEdgeStyle;rounded=0;html=1;jettySize=auto;orthogonalLoop=1;fontSize=11;endArrow=block;endFill=0;endSize=8;strokeWidth=1;shadow=0;labelBackgroundColor=none;" parent="WIyWlLk6GJQsqaUBKTNV-1" source="WIyWlLk6GJQsqaUBKTNV-6" target="WIyWlLk6GJQsqaUBKTNV-7" edge="1">
          <mxGeometry y="10" relative="1" as="geometry">
            <mxPoint as="offset" />
          </mxGeometry>
        </mxCell>
        <mxCell id="WIyWlLk6GJQsqaUBKTNV-6" value="podłączony do prądu?" style="rhombus;whiteSpace=wrap;html=1;shadow=0;fontFamily=Helvetica;fontSize=12;align=center;strokeWidth=1;spacing=6;spacingTop=-4;" parent="WIyWlLk6GJQsqaUBKTNV-1" vertex="1">
          <mxGeometry x="360" y="150" width="100" height="80" as="geometry" />
        </mxCell>
        <mxCell id="F1mDBeOYBX6b-m0GUUN7-1" value="" style="edgeStyle=orthogonalEdgeStyle;rounded=0;orthogonalLoop=1;jettySize=auto;html=1;" parent="WIyWlLk6GJQsqaUBKTNV-1" source="WIyWlLk6GJQsqaUBKTNV-7" target="F1mDBeOYBX6b-m0GUUN7-0" edge="1">
          <mxGeometry relative="1" as="geometry" />
        </mxCell>
        <mxCell id="WIyWlLk6GJQsqaUBKTNV-7" value="podlączyć" style="rounded=1;whiteSpace=wrap;html=1;fontSize=12;glass=0;strokeWidth=1;shadow=0;" parent="WIyWlLk6GJQsqaUBKTNV-1" vertex="1">
          <mxGeometry x="590" y="170" width="120" height="40" as="geometry" />
        </mxCell>
        <mxCell id="WIyWlLk6GJQsqaUBKTNV-8" value="No" style="rounded=0;html=1;jettySize=auto;orthogonalLoop=1;fontSize=11;endArrow=block;endFill=0;endSize=8;strokeWidth=1;shadow=0;labelBackgroundColor=none;edgeStyle=orthogonalEdgeStyle;" parent="WIyWlLk6GJQsqaUBKTNV-1" source="WIyWlLk6GJQsqaUBKTNV-10" target="WIyWlLk6GJQsqaUBKTNV-11" edge="1">
          <mxGeometry x="0.3333" y="20" relative="1" as="geometry">
            <mxPoint as="offset" />
          </mxGeometry>
        </mxCell>
        <mxCell id="WIyWlLk6GJQsqaUBKTNV-9" value="Yes" style="edgeStyle=orthogonalEdgeStyle;rounded=0;html=1;jettySize=auto;orthogonalLoop=1;fontSize=11;endArrow=block;endFill=0;endSize=8;strokeWidth=1;shadow=0;labelBackgroundColor=none;" parent="WIyWlLk6GJQsqaUBKTNV-1" source="WIyWlLk6GJQsqaUBKTNV-10" target="WIyWlLk6GJQsqaUBKTNV-12" edge="1">
          <mxGeometry y="10" relative="1" as="geometry">
            <mxPoint as="offset" />
          </mxGeometry>
        </mxCell>
        <mxCell id="WIyWlLk6GJQsqaUBKTNV-10" value="Czy jesteś programistą?" style="rhombus;whiteSpace=wrap;html=1;shadow=0;fontFamily=Helvetica;fontSize=12;align=center;strokeWidth=1;spacing=6;spacingTop=-4;" parent="WIyWlLk6GJQsqaUBKTNV-1" vertex="1">
          <mxGeometry x="360" y="270" width="100" height="80" as="geometry" />
        </mxCell>
        <mxCell id="F1mDBeOYBX6b-m0GUUN7-10" style="edgeStyle=orthogonalEdgeStyle;rounded=0;orthogonalLoop=1;jettySize=auto;html=1;" parent="WIyWlLk6GJQsqaUBKTNV-1" source="WIyWlLk6GJQsqaUBKTNV-11" edge="1">
          <mxGeometry relative="1" as="geometry">
            <mxPoint x="340" y="600" as="targetPoint" />
            <Array as="points">
              <mxPoint x="210" y="600" />
            </Array>
          </mxGeometry>
        </mxCell>
        <mxCell id="WIyWlLk6GJQsqaUBKTNV-11" value="Zadzwoń do programisty" style="rounded=1;whiteSpace=wrap;html=1;fontSize=12;glass=0;strokeWidth=1;shadow=0;" parent="WIyWlLk6GJQsqaUBKTNV-1" vertex="1">
          <mxGeometry x="160" y="440" width="120" height="40" as="geometry" />
        </mxCell>
        <mxCell id="F1mDBeOYBX6b-m0GUUN7-9" style="edgeStyle=orthogonalEdgeStyle;rounded=0;orthogonalLoop=1;jettySize=auto;html=1;" parent="WIyWlLk6GJQsqaUBKTNV-1" source="WIyWlLk6GJQsqaUBKTNV-12" edge="1">
          <mxGeometry relative="1" as="geometry">
            <mxPoint x="410" y="560" as="targetPoint" />
          </mxGeometry>
        </mxCell>
        <mxCell id="WIyWlLk6GJQsqaUBKTNV-12" value="napraw komputer" style="rounded=1;whiteSpace=wrap;html=1;fontSize=12;glass=0;strokeWidth=1;shadow=0;" parent="WIyWlLk6GJQsqaUBKTNV-1" vertex="1">
          <mxGeometry x="350" y="440" width="120" height="40" as="geometry" />
        </mxCell>
        <mxCell id="F1mDBeOYBX6b-m0GUUN7-2" style="edgeStyle=orthogonalEdgeStyle;rounded=0;orthogonalLoop=1;jettySize=auto;html=1;" parent="WIyWlLk6GJQsqaUBKTNV-1" source="F1mDBeOYBX6b-m0GUUN7-0" edge="1">
          <mxGeometry relative="1" as="geometry">
            <mxPoint x="470" y="310" as="targetPoint" />
          </mxGeometry>
        </mxCell>
        <mxCell id="F1mDBeOYBX6b-m0GUUN7-4" style="edgeStyle=orthogonalEdgeStyle;rounded=0;orthogonalLoop=1;jettySize=auto;html=1;" parent="WIyWlLk6GJQsqaUBKTNV-1" source="F1mDBeOYBX6b-m0GUUN7-0" edge="1">
          <mxGeometry relative="1" as="geometry">
            <mxPoint x="480" y="600" as="targetPoint" />
            <Array as="points">
              <mxPoint x="760" y="310" />
            </Array>
          </mxGeometry>
        </mxCell>
        <mxCell id="F1mDBeOYBX6b-m0GUUN7-0" value="działa?" style="rhombus;whiteSpace=wrap;html=1;rounded=1;shadow=0;strokeWidth=1;glass=0;" parent="WIyWlLk6GJQsqaUBKTNV-1" vertex="1">
          <mxGeometry x="610" y="270" width="80" height="80" as="geometry" />
        </mxCell>
        <mxCell id="F1mDBeOYBX6b-m0GUUN7-3" value="Nie" style="text;html=1;align=center;verticalAlign=middle;resizable=0;points=[];autosize=1;strokeColor=none;fillColor=none;" parent="WIyWlLk6GJQsqaUBKTNV-1" vertex="1">
          <mxGeometry x="545" y="290" width="30" height="20" as="geometry" />
        </mxCell>
        <mxCell id="F1mDBeOYBX6b-m0GUUN7-5" value="Koniec" style="ellipse;whiteSpace=wrap;html=1;" parent="WIyWlLk6GJQsqaUBKTNV-1" vertex="1">
          <mxGeometry x="350" y="570" width="120" height="60" as="geometry" />
        </mxCell>
        <mxCell id="F1mDBeOYBX6b-m0GUUN7-7" style="edgeStyle=orthogonalEdgeStyle;rounded=0;orthogonalLoop=1;jettySize=auto;html=1;entryX=0.5;entryY=0;entryDx=0;entryDy=0;" parent="WIyWlLk6GJQsqaUBKTNV-1" source="F1mDBeOYBX6b-m0GUUN7-6" target="WIyWlLk6GJQsqaUBKTNV-3" edge="1">
          <mxGeometry relative="1" as="geometry" />
        </mxCell>
        <mxCell id="F1mDBeOYBX6b-m0GUUN7-6" value="początek" style="ellipse;whiteSpace=wrap;html=1;" parent="WIyWlLk6GJQsqaUBKTNV-1" vertex="1">
          <mxGeometry x="350" y="-40" width="120" height="60" as="geometry" />
        </mxCell>
        <mxCell id="F1mDBeOYBX6b-m0GUUN7-8" value="Tak" style="text;html=1;align=center;verticalAlign=middle;resizable=0;points=[];autosize=1;strokeColor=none;fillColor=none;" parent="WIyWlLk6GJQsqaUBKTNV-1" vertex="1">
          <mxGeometry x="705" y="280" width="30" height="20" as="geometry" />
        </mxCell>
      </root>
    </mxGraphModel>
  </diagram>
  <diagram id="Vx7Gqg6SF2oPNn_mIUeA" name="Zadanie 2">
    <mxGraphModel dx="1730" dy="818" grid="1" gridSize="10" guides="1" tooltips="1" connect="1" arrows="1" fold="1" page="1" pageScale="1" pageWidth="827" pageHeight="1169" math="0" shadow="0">
      <root>
        <mxCell id="A74rUu0wON1oiBE8rHPb-0" />
        <mxCell id="A74rUu0wON1oiBE8rHPb-1" parent="A74rUu0wON1oiBE8rHPb-0" />
        <mxCell id="A74rUu0wON1oiBE8rHPb-4" style="edgeStyle=orthogonalEdgeStyle;rounded=0;orthogonalLoop=1;jettySize=auto;html=1;" edge="1" parent="A74rUu0wON1oiBE8rHPb-1" source="A74rUu0wON1oiBE8rHPb-2">
          <mxGeometry relative="1" as="geometry">
            <mxPoint x="400" y="130" as="targetPoint" />
          </mxGeometry>
        </mxCell>
        <mxCell id="A74rUu0wON1oiBE8rHPb-2" value="Pocżatek" style="ellipse;whiteSpace=wrap;html=1;" vertex="1" parent="A74rUu0wON1oiBE8rHPb-1">
          <mxGeometry x="340" y="10" width="120" height="80" as="geometry" />
        </mxCell>
        <mxCell id="A74rUu0wON1oiBE8rHPb-3" value="Koniec" style="ellipse;whiteSpace=wrap;html=1;" vertex="1" parent="A74rUu0wON1oiBE8rHPb-1">
          <mxGeometry x="340" y="505" width="120" height="80" as="geometry" />
        </mxCell>
        <mxCell id="YyZ5q5evIjNIu_qkgjQI-1" style="edgeStyle=orthogonalEdgeStyle;rounded=0;orthogonalLoop=1;jettySize=auto;html=1;" edge="1" parent="A74rUu0wON1oiBE8rHPb-1" source="YyZ5q5evIjNIu_qkgjQI-0" target="YyZ5q5evIjNIu_qkgjQI-2">
          <mxGeometry relative="1" as="geometry">
            <mxPoint x="400" y="240" as="targetPoint" />
          </mxGeometry>
        </mxCell>
        <mxCell id="YyZ5q5evIjNIu_qkgjQI-0" value="podać dany" style="rounded=1;whiteSpace=wrap;html=1;" vertex="1" parent="A74rUu0wON1oiBE8rHPb-1">
          <mxGeometry x="340" y="140" width="120" height="60" as="geometry" />
        </mxCell>
        <mxCell id="YyZ5q5evIjNIu_qkgjQI-3" style="edgeStyle=orthogonalEdgeStyle;rounded=0;orthogonalLoop=1;jettySize=auto;html=1;" edge="1" parent="A74rUu0wON1oiBE8rHPb-1" source="YyZ5q5evIjNIu_qkgjQI-2" target="YyZ5q5evIjNIu_qkgjQI-7">
          <mxGeometry relative="1" as="geometry">
            <mxPoint x="210" y="360" as="targetPoint" />
            <Array as="points">
              <mxPoint x="210" y="295" />
            </Array>
          </mxGeometry>
        </mxCell>
        <mxCell id="YyZ5q5evIjNIu_qkgjQI-5" style="edgeStyle=orthogonalEdgeStyle;rounded=0;orthogonalLoop=1;jettySize=auto;html=1;entryX=0.5;entryY=0;entryDx=0;entryDy=0;" edge="1" parent="A74rUu0wON1oiBE8rHPb-1" source="YyZ5q5evIjNIu_qkgjQI-2" target="YyZ5q5evIjNIu_qkgjQI-8">
          <mxGeometry relative="1" as="geometry">
            <mxPoint x="600" y="360" as="targetPoint" />
            <Array as="points">
              <mxPoint x="600" y="295" />
            </Array>
          </mxGeometry>
        </mxCell>
        <mxCell id="YyZ5q5evIjNIu_qkgjQI-2" value="jeśli podzielisz liczbę przez dwa, otrzymasz resztę 0?" style="rhombus;whiteSpace=wrap;html=1;" vertex="1" parent="A74rUu0wON1oiBE8rHPb-1">
          <mxGeometry x="310" y="230" width="180" height="130" as="geometry" />
        </mxCell>
        <mxCell id="YyZ5q5evIjNIu_qkgjQI-4" value="Tak" style="text;html=1;align=center;verticalAlign=middle;resizable=0;points=[];autosize=1;strokeColor=none;fillColor=none;" vertex="1" parent="A74rUu0wON1oiBE8rHPb-1">
          <mxGeometry x="260" y="270" width="30" height="20" as="geometry" />
        </mxCell>
        <mxCell id="YyZ5q5evIjNIu_qkgjQI-6" value="Nie&lt;br&gt;" style="text;html=1;align=center;verticalAlign=middle;resizable=0;points=[];autosize=1;strokeColor=none;fillColor=none;" vertex="1" parent="A74rUu0wON1oiBE8rHPb-1">
          <mxGeometry x="500" y="270" width="30" height="20" as="geometry" />
        </mxCell>
        <mxCell id="YyZ5q5evIjNIu_qkgjQI-9" style="edgeStyle=orthogonalEdgeStyle;rounded=0;orthogonalLoop=1;jettySize=auto;html=1;" edge="1" parent="A74rUu0wON1oiBE8rHPb-1" source="YyZ5q5evIjNIu_qkgjQI-7">
          <mxGeometry relative="1" as="geometry">
            <mxPoint x="400" y="500" as="targetPoint" />
          </mxGeometry>
        </mxCell>
        <mxCell id="YyZ5q5evIjNIu_qkgjQI-7" value="liczba jest parzysta" style="rounded=1;whiteSpace=wrap;html=1;" vertex="1" parent="A74rUu0wON1oiBE8rHPb-1">
          <mxGeometry x="160" y="380" width="120" height="60" as="geometry" />
        </mxCell>
        <mxCell id="YyZ5q5evIjNIu_qkgjQI-10" style="edgeStyle=orthogonalEdgeStyle;rounded=0;orthogonalLoop=1;jettySize=auto;html=1;" edge="1" parent="A74rUu0wON1oiBE8rHPb-1" source="YyZ5q5evIjNIu_qkgjQI-8" target="A74rUu0wON1oiBE8rHPb-3">
          <mxGeometry relative="1" as="geometry" />
        </mxCell>
        <mxCell id="YyZ5q5evIjNIu_qkgjQI-8" value="liczba nie jest parzysta" style="rounded=1;whiteSpace=wrap;html=1;" vertex="1" parent="A74rUu0wON1oiBE8rHPb-1">
          <mxGeometry x="540" y="380" width="120" height="60" as="geometry" />
        </mxCell>
      </root>
    </mxGraphModel>
  </diagram>
  <diagram id="lebJf-OAYfzx7wF0Wu4J" name="Zadanie 3">
    <mxGraphModel dx="1038" dy="491" grid="1" gridSize="10" guides="1" tooltips="1" connect="1" arrows="1" fold="1" page="1" pageScale="1" pageWidth="827" pageHeight="1169" math="0" shadow="0">
      <root>
        <mxCell id="EtYx0O77pA2eekIMg-2z-0" />
        <mxCell id="EtYx0O77pA2eekIMg-2z-1" parent="EtYx0O77pA2eekIMg-2z-0" />
        <mxCell id="EtYx0O77pA2eekIMg-2z-2" style="edgeStyle=orthogonalEdgeStyle;rounded=0;orthogonalLoop=1;jettySize=auto;html=1;" edge="1" parent="EtYx0O77pA2eekIMg-2z-1" source="EtYx0O77pA2eekIMg-2z-3">
          <mxGeometry relative="1" as="geometry">
            <mxPoint x="400" y="130" as="targetPoint" />
          </mxGeometry>
        </mxCell>
        <mxCell id="EtYx0O77pA2eekIMg-2z-3" value="Pocżatek" style="ellipse;whiteSpace=wrap;html=1;" vertex="1" parent="EtYx0O77pA2eekIMg-2z-1">
          <mxGeometry x="340" y="10" width="120" height="80" as="geometry" />
        </mxCell>
        <mxCell id="EtYx0O77pA2eekIMg-2z-4" value="Koniec" style="ellipse;whiteSpace=wrap;html=1;" vertex="1" parent="EtYx0O77pA2eekIMg-2z-1">
          <mxGeometry x="340" y="630" width="120" height="80" as="geometry" />
        </mxCell>
        <mxCell id="EtYx0O77pA2eekIMg-2z-5" style="edgeStyle=orthogonalEdgeStyle;rounded=0;orthogonalLoop=1;jettySize=auto;html=1;" edge="1" parent="EtYx0O77pA2eekIMg-2z-1" source="EtYx0O77pA2eekIMg-2z-6" target="EtYx0O77pA2eekIMg-2z-9">
          <mxGeometry relative="1" as="geometry">
            <mxPoint x="400" y="240" as="targetPoint" />
          </mxGeometry>
        </mxCell>
        <mxCell id="EtYx0O77pA2eekIMg-2z-6" value="podać dany" style="rounded=1;whiteSpace=wrap;html=1;" vertex="1" parent="EtYx0O77pA2eekIMg-2z-1">
          <mxGeometry x="340" y="140" width="120" height="60" as="geometry" />
        </mxCell>
        <mxCell id="EtYx0O77pA2eekIMg-2z-7" style="edgeStyle=orthogonalEdgeStyle;rounded=0;orthogonalLoop=1;jettySize=auto;html=1;" edge="1" parent="EtYx0O77pA2eekIMg-2z-1" source="EtYx0O77pA2eekIMg-2z-9" target="EtYx0O77pA2eekIMg-2z-13">
          <mxGeometry relative="1" as="geometry">
            <mxPoint x="210" y="360" as="targetPoint" />
            <Array as="points">
              <mxPoint x="210" y="295" />
            </Array>
          </mxGeometry>
        </mxCell>
        <mxCell id="EtYx0O77pA2eekIMg-2z-8" style="edgeStyle=orthogonalEdgeStyle;rounded=0;orthogonalLoop=1;jettySize=auto;html=1;" edge="1" parent="EtYx0O77pA2eekIMg-2z-1" source="EtYx0O77pA2eekIMg-2z-9" target="EtYx0O77pA2eekIMg-2z-15">
          <mxGeometry relative="1" as="geometry">
            <mxPoint x="600" y="540" as="targetPoint" />
            <Array as="points">
              <mxPoint x="600" y="295" />
            </Array>
          </mxGeometry>
        </mxCell>
        <mxCell id="EtYx0O77pA2eekIMg-2z-9" value="jeśli podzielisz liczbę przez 1 , otrzymasz resztę 0?" style="rhombus;whiteSpace=wrap;html=1;" vertex="1" parent="EtYx0O77pA2eekIMg-2z-1">
          <mxGeometry x="310" y="230" width="180" height="130" as="geometry" />
        </mxCell>
        <mxCell id="EtYx0O77pA2eekIMg-2z-10" value="Tak" style="text;html=1;align=center;verticalAlign=middle;resizable=0;points=[];autosize=1;strokeColor=none;fillColor=none;" vertex="1" parent="EtYx0O77pA2eekIMg-2z-1">
          <mxGeometry x="260" y="270" width="30" height="20" as="geometry" />
        </mxCell>
        <mxCell id="EtYx0O77pA2eekIMg-2z-11" value="Nie&lt;br&gt;" style="text;html=1;align=center;verticalAlign=middle;resizable=0;points=[];autosize=1;strokeColor=none;fillColor=none;" vertex="1" parent="EtYx0O77pA2eekIMg-2z-1">
          <mxGeometry x="500" y="270" width="30" height="20" as="geometry" />
        </mxCell>
        <mxCell id="EtYx0O77pA2eekIMg-2z-12" style="edgeStyle=orthogonalEdgeStyle;rounded=0;orthogonalLoop=1;jettySize=auto;html=1;" edge="1" parent="EtYx0O77pA2eekIMg-2z-1" source="EtYx0O77pA2eekIMg-2z-13">
          <mxGeometry relative="1" as="geometry">
            <mxPoint x="400" y="520" as="targetPoint" />
          </mxGeometry>
        </mxCell>
        <mxCell id="EtYx0O77pA2eekIMg-2z-17" style="edgeStyle=orthogonalEdgeStyle;rounded=0;orthogonalLoop=1;jettySize=auto;html=1;" edge="1" parent="EtYx0O77pA2eekIMg-2z-1" source="EtYx0O77pA2eekIMg-2z-13">
          <mxGeometry relative="1" as="geometry">
            <mxPoint x="600" y="430" as="targetPoint" />
          </mxGeometry>
        </mxCell>
        <mxCell id="EtYx0O77pA2eekIMg-2z-13" value="jeśli podzielisz liczbę przez siebie, reszta to 0?" style="rounded=1;whiteSpace=wrap;html=1;" vertex="1" parent="EtYx0O77pA2eekIMg-2z-1">
          <mxGeometry x="340" y="400" width="120" height="60" as="geometry" />
        </mxCell>
        <mxCell id="EtYx0O77pA2eekIMg-2z-20" style="edgeStyle=orthogonalEdgeStyle;rounded=0;orthogonalLoop=1;jettySize=auto;html=1;" edge="1" parent="EtYx0O77pA2eekIMg-2z-1" source="EtYx0O77pA2eekIMg-2z-15">
          <mxGeometry relative="1" as="geometry">
            <mxPoint x="470" y="670" as="targetPoint" />
          </mxGeometry>
        </mxCell>
        <mxCell id="EtYx0O77pA2eekIMg-2z-15" value="&lt;span style=&quot;color: rgb(82 , 96 , 105) ; font-family: &amp;#34;roboto&amp;#34; , sans-serif ; font-size: 14px ; text-align: left ; background-color: rgb(255 , 255 , 255)&quot;&gt;&amp;nbsp;liczba nie jest liczba pierwszą&lt;/span&gt;" style="rounded=1;whiteSpace=wrap;html=1;" vertex="1" parent="EtYx0O77pA2eekIMg-2z-1">
          <mxGeometry x="540" y="640" width="120" height="60" as="geometry" />
        </mxCell>
        <mxCell id="EtYx0O77pA2eekIMg-2z-16" value="Tak&lt;br&gt;" style="text;html=1;align=center;verticalAlign=middle;resizable=0;points=[];autosize=1;strokeColor=none;fillColor=none;" vertex="1" parent="EtYx0O77pA2eekIMg-2z-1">
          <mxGeometry x="365" y="470" width="30" height="20" as="geometry" />
        </mxCell>
        <mxCell id="EtYx0O77pA2eekIMg-2z-19" style="edgeStyle=orthogonalEdgeStyle;rounded=0;orthogonalLoop=1;jettySize=auto;html=1;" edge="1" parent="EtYx0O77pA2eekIMg-2z-1" source="EtYx0O77pA2eekIMg-2z-18">
          <mxGeometry relative="1" as="geometry">
            <mxPoint x="400" y="620" as="targetPoint" />
          </mxGeometry>
        </mxCell>
        <mxCell id="EtYx0O77pA2eekIMg-2z-18" value="&lt;br&gt;&lt;span style=&quot;color: rgb(82 , 96 , 105) ; font-family: &amp;#34;roboto&amp;#34; , sans-serif ; font-size: 14px ; font-style: normal ; font-weight: 400 ; letter-spacing: normal ; text-align: left ; text-indent: 0px ; text-transform: none ; word-spacing: 0px ; background-color: rgb(255 , 255 , 255) ; display: inline ; float: none&quot;&gt;&amp;nbsp;liczba jest liczba pierwszą&lt;/span&gt;&lt;br&gt;" style="rounded=1;whiteSpace=wrap;html=1;" vertex="1" parent="EtYx0O77pA2eekIMg-2z-1">
          <mxGeometry x="340" y="530" width="120" height="60" as="geometry" />
        </mxCell>
      </root>
    </mxGraphModel>
  </diagram>
  <diagram id="5v9Tp8FRkf4kdtrHEA-7" name="Zadanie 3a">
    <mxGraphModel dx="1483" dy="701" grid="1" gridSize="10" guides="1" tooltips="1" connect="1" arrows="1" fold="1" page="1" pageScale="1" pageWidth="827" pageHeight="1169" math="0" shadow="0">
      <root>
        <mxCell id="oF_d2fwk_muQgnuvm1um-0" />
        <mxCell id="oF_d2fwk_muQgnuvm1um-1" parent="oF_d2fwk_muQgnuvm1um-0" />
        <mxCell id="5YhGjxzjLZ6j9Sek7zgv-0" style="edgeStyle=orthogonalEdgeStyle;rounded=0;orthogonalLoop=1;jettySize=auto;html=1;" edge="1" parent="oF_d2fwk_muQgnuvm1um-1" source="5YhGjxzjLZ6j9Sek7zgv-1">
          <mxGeometry relative="1" as="geometry">
            <mxPoint x="400" y="130" as="targetPoint" />
          </mxGeometry>
        </mxCell>
        <mxCell id="5YhGjxzjLZ6j9Sek7zgv-1" value="Pocżatek" style="ellipse;whiteSpace=wrap;html=1;" vertex="1" parent="oF_d2fwk_muQgnuvm1um-1">
          <mxGeometry x="340" y="10" width="120" height="80" as="geometry" />
        </mxCell>
        <mxCell id="5YhGjxzjLZ6j9Sek7zgv-2" value="Koniec" style="ellipse;whiteSpace=wrap;html=1;" vertex="1" parent="oF_d2fwk_muQgnuvm1um-1">
          <mxGeometry x="340" y="680" width="120" height="80" as="geometry" />
        </mxCell>
        <mxCell id="5YhGjxzjLZ6j9Sek7zgv-3" style="edgeStyle=orthogonalEdgeStyle;rounded=0;orthogonalLoop=1;jettySize=auto;html=1;" edge="1" parent="oF_d2fwk_muQgnuvm1um-1" source="5YhGjxzjLZ6j9Sek7zgv-4" target="5YhGjxzjLZ6j9Sek7zgv-7">
          <mxGeometry relative="1" as="geometry">
            <mxPoint x="400" y="240" as="targetPoint" />
          </mxGeometry>
        </mxCell>
        <mxCell id="5YhGjxzjLZ6j9Sek7zgv-4" value="podać licbu n, która jest więcej niż 1" style="rounded=1;whiteSpace=wrap;html=1;" vertex="1" parent="oF_d2fwk_muQgnuvm1um-1">
          <mxGeometry x="340" y="140" width="120" height="60" as="geometry" />
        </mxCell>
        <mxCell id="5YhGjxzjLZ6j9Sek7zgv-5" style="edgeStyle=orthogonalEdgeStyle;rounded=0;orthogonalLoop=1;jettySize=auto;html=1;" edge="1" parent="oF_d2fwk_muQgnuvm1um-1" source="5YhGjxzjLZ6j9Sek7zgv-7" target="5YhGjxzjLZ6j9Sek7zgv-12">
          <mxGeometry relative="1" as="geometry">
            <mxPoint x="210" y="360" as="targetPoint" />
            <Array as="points">
              <mxPoint x="210" y="295" />
            </Array>
          </mxGeometry>
        </mxCell>
        <mxCell id="5YhGjxzjLZ6j9Sek7zgv-6" style="edgeStyle=orthogonalEdgeStyle;rounded=0;orthogonalLoop=1;jettySize=auto;html=1;" edge="1" parent="oF_d2fwk_muQgnuvm1um-1" source="5YhGjxzjLZ6j9Sek7zgv-7">
          <mxGeometry relative="1" as="geometry">
            <mxPoint x="480" y="168.4000244140625" as="targetPoint" />
            <Array as="points">
              <mxPoint x="600" y="295" />
            </Array>
          </mxGeometry>
        </mxCell>
        <mxCell id="5YhGjxzjLZ6j9Sek7zgv-7" value="licba jest więcej niż 1" style="rhombus;whiteSpace=wrap;html=1;" vertex="1" parent="oF_d2fwk_muQgnuvm1um-1">
          <mxGeometry x="310" y="230" width="180" height="130" as="geometry" />
        </mxCell>
        <mxCell id="5YhGjxzjLZ6j9Sek7zgv-8" value="Tak" style="text;html=1;align=center;verticalAlign=middle;resizable=0;points=[];autosize=1;strokeColor=none;fillColor=none;" vertex="1" parent="oF_d2fwk_muQgnuvm1um-1">
          <mxGeometry x="260" y="270" width="30" height="20" as="geometry" />
        </mxCell>
        <mxCell id="5YhGjxzjLZ6j9Sek7zgv-9" value="Nie&lt;br&gt;" style="text;html=1;align=center;verticalAlign=middle;resizable=0;points=[];autosize=1;strokeColor=none;fillColor=none;" vertex="1" parent="oF_d2fwk_muQgnuvm1um-1">
          <mxGeometry x="500" y="270" width="30" height="20" as="geometry" />
        </mxCell>
        <mxCell id="5YhGjxzjLZ6j9Sek7zgv-10" style="edgeStyle=orthogonalEdgeStyle;rounded=0;orthogonalLoop=1;jettySize=auto;html=1;" edge="1" parent="oF_d2fwk_muQgnuvm1um-1" source="5YhGjxzjLZ6j9Sek7zgv-12">
          <mxGeometry relative="1" as="geometry">
            <mxPoint x="400" y="520" as="targetPoint" />
          </mxGeometry>
        </mxCell>
        <mxCell id="5YhGjxzjLZ6j9Sek7zgv-12" value="wyświetlic 1" style="rounded=1;whiteSpace=wrap;html=1;" vertex="1" parent="oF_d2fwk_muQgnuvm1um-1">
          <mxGeometry x="340" y="400" width="120" height="60" as="geometry" />
        </mxCell>
        <mxCell id="5YhGjxzjLZ6j9Sek7zgv-19" style="edgeStyle=orthogonalEdgeStyle;rounded=0;orthogonalLoop=1;jettySize=auto;html=1;" edge="1" parent="oF_d2fwk_muQgnuvm1um-1" source="5YhGjxzjLZ6j9Sek7zgv-18">
          <mxGeometry relative="1" as="geometry">
            <mxPoint x="400" y="670" as="targetPoint" />
          </mxGeometry>
        </mxCell>
        <mxCell id="5YhGjxzjLZ6j9Sek7zgv-22" style="edgeStyle=orthogonalEdgeStyle;rounded=0;orthogonalLoop=1;jettySize=auto;html=1;" edge="1" parent="oF_d2fwk_muQgnuvm1um-1" source="5YhGjxzjLZ6j9Sek7zgv-18">
          <mxGeometry relative="1" as="geometry">
            <mxPoint x="540" y="560" as="targetPoint" />
          </mxGeometry>
        </mxCell>
        <mxCell id="5YhGjxzjLZ6j9Sek7zgv-18" value="licba jest równa się &quot;n&quot;" style="rounded=1;whiteSpace=wrap;html=1;" vertex="1" parent="oF_d2fwk_muQgnuvm1um-1">
          <mxGeometry x="340" y="530" width="120" height="60" as="geometry" />
        </mxCell>
        <mxCell id="5YhGjxzjLZ6j9Sek7zgv-21" value="Tak" style="text;html=1;align=center;verticalAlign=middle;resizable=0;points=[];autosize=1;strokeColor=none;fillColor=none;" vertex="1" parent="oF_d2fwk_muQgnuvm1um-1">
          <mxGeometry x="355" y="620" width="30" height="20" as="geometry" />
        </mxCell>
        <mxCell id="5YhGjxzjLZ6j9Sek7zgv-23" value="Nie" style="text;html=1;align=center;verticalAlign=middle;resizable=0;points=[];autosize=1;strokeColor=none;fillColor=none;" vertex="1" parent="oF_d2fwk_muQgnuvm1um-1">
          <mxGeometry x="470" y="530" width="30" height="20" as="geometry" />
        </mxCell>
        <mxCell id="5YhGjxzjLZ6j9Sek7zgv-25" style="edgeStyle=orthogonalEdgeStyle;rounded=0;orthogonalLoop=1;jettySize=auto;html=1;" edge="1" parent="oF_d2fwk_muQgnuvm1um-1" source="5YhGjxzjLZ6j9Sek7zgv-24">
          <mxGeometry relative="1" as="geometry">
            <mxPoint x="430" y="510" as="targetPoint" />
            <Array as="points">
              <mxPoint x="610" y="480" />
            </Array>
          </mxGeometry>
        </mxCell>
        <mxCell id="5YhGjxzjLZ6j9Sek7zgv-24" value="dodać 1" style="whiteSpace=wrap;html=1;" vertex="1" parent="oF_d2fwk_muQgnuvm1um-1">
          <mxGeometry x="550" y="530" width="120" height="60" as="geometry" />
        </mxCell>
      </root>
    </mxGraphModel>
  </diagram>
  <diagram id="XKv1AAtZ1QcRXg8ssb0J" name="Zadanie 4">
    <mxGraphModel dx="1038" dy="547" grid="1" gridSize="10" guides="1" tooltips="1" connect="1" arrows="1" fold="1" page="1" pageScale="1" pageWidth="827" pageHeight="1169" math="0" shadow="0">
      <root>
        <mxCell id="hQ3t_e0Qlo94Dioe-Yxh-0" />
        <mxCell id="hQ3t_e0Qlo94Dioe-Yxh-1" parent="hQ3t_e0Qlo94Dioe-Yxh-0" />
        <mxCell id="E1t31NTn59jSzASZzc1J-0" style="edgeStyle=orthogonalEdgeStyle;rounded=0;orthogonalLoop=1;jettySize=auto;html=1;" parent="hQ3t_e0Qlo94Dioe-Yxh-1" source="E1t31NTn59jSzASZzc1J-1" edge="1">
          <mxGeometry relative="1" as="geometry">
            <mxPoint x="400" y="220" as="targetPoint" />
          </mxGeometry>
        </mxCell>
        <mxCell id="E1t31NTn59jSzASZzc1J-1" value="Pocżatek" style="ellipse;whiteSpace=wrap;html=1;" parent="hQ3t_e0Qlo94Dioe-Yxh-1" vertex="1">
          <mxGeometry x="340" y="10" width="120" height="80" as="geometry" />
        </mxCell>
        <mxCell id="E1t31NTn59jSzASZzc1J-2" value="Koniec" style="ellipse;whiteSpace=wrap;html=1;" parent="hQ3t_e0Qlo94Dioe-Yxh-1" vertex="1">
          <mxGeometry x="340" y="530" width="120" height="80" as="geometry" />
        </mxCell>
        <mxCell id="E1t31NTn59jSzASZzc1J-5" style="edgeStyle=orthogonalEdgeStyle;rounded=0;orthogonalLoop=1;jettySize=auto;html=1;" parent="hQ3t_e0Qlo94Dioe-Yxh-1" source="E1t31NTn59jSzASZzc1J-7" target="E1t31NTn59jSzASZzc1J-11" edge="1">
          <mxGeometry relative="1" as="geometry">
            <mxPoint x="210" y="360" as="targetPoint" />
            <Array as="points">
              <mxPoint x="210" y="295" />
            </Array>
          </mxGeometry>
        </mxCell>
        <mxCell id="E1t31NTn59jSzASZzc1J-19" style="edgeStyle=orthogonalEdgeStyle;rounded=0;orthogonalLoop=1;jettySize=auto;html=1;" parent="hQ3t_e0Qlo94Dioe-Yxh-1" source="E1t31NTn59jSzASZzc1J-7" edge="1">
          <mxGeometry relative="1" as="geometry">
            <mxPoint x="670" y="340" as="targetPoint" />
            <Array as="points">
              <mxPoint x="670" y="295" />
            </Array>
          </mxGeometry>
        </mxCell>
        <mxCell id="E1t31NTn59jSzASZzc1J-7" value="osoba jest kobita?" style="rhombus;whiteSpace=wrap;html=1;" parent="hQ3t_e0Qlo94Dioe-Yxh-1" vertex="1">
          <mxGeometry x="310" y="230" width="180" height="130" as="geometry" />
        </mxCell>
        <mxCell id="E1t31NTn59jSzASZzc1J-8" value="Tak" style="text;html=1;align=center;verticalAlign=middle;resizable=0;points=[];autosize=1;strokeColor=none;fillColor=none;" parent="hQ3t_e0Qlo94Dioe-Yxh-1" vertex="1">
          <mxGeometry x="260" y="270" width="30" height="20" as="geometry" />
        </mxCell>
        <mxCell id="E1t31NTn59jSzASZzc1J-10" style="edgeStyle=orthogonalEdgeStyle;rounded=0;orthogonalLoop=1;jettySize=auto;html=1;" parent="hQ3t_e0Qlo94Dioe-Yxh-1" source="E1t31NTn59jSzASZzc1J-11" edge="1">
          <mxGeometry relative="1" as="geometry">
            <mxPoint x="400" y="520" as="targetPoint" />
          </mxGeometry>
        </mxCell>
        <mxCell id="E1t31NTn59jSzASZzc1J-11" value="Osoba&amp;nbsp;&lt;span style=&quot;color: rgb(82 , 96 , 105) ; font-family: &amp;#34;roboto&amp;#34; , sans-serif ; font-size: 14px ; text-align: left ; background-color: rgb(255 , 255 , 255)&quot;&gt;może już odejść na emeryturę&lt;/span&gt;" style="rounded=1;whiteSpace=wrap;html=1;" parent="hQ3t_e0Qlo94Dioe-Yxh-1" vertex="1">
          <mxGeometry x="340" y="400" width="120" height="60" as="geometry" />
        </mxCell>
        <mxCell id="E1t31NTn59jSzASZzc1J-22" style="edgeStyle=orthogonalEdgeStyle;rounded=0;orthogonalLoop=1;jettySize=auto;html=1;entryX=1;entryY=0.5;entryDx=0;entryDy=0;" parent="hQ3t_e0Qlo94Dioe-Yxh-1" source="E1t31NTn59jSzASZzc1J-20" target="E1t31NTn59jSzASZzc1J-11" edge="1">
          <mxGeometry relative="1" as="geometry">
            <Array as="points">
              <mxPoint x="670" y="430" />
            </Array>
          </mxGeometry>
        </mxCell>
        <mxCell id="E1t31NTn59jSzASZzc1J-20" value="ma osoba 65 lub wiecej lat?" style="rhombus;whiteSpace=wrap;html=1;" parent="hQ3t_e0Qlo94Dioe-Yxh-1" vertex="1">
          <mxGeometry x="620" y="320" width="100" height="80" as="geometry" />
        </mxCell>
        <mxCell id="E1t31NTn59jSzASZzc1J-21" value="ma osoba 60 lub wiecej lat?" style="rhombus;whiteSpace=wrap;html=1;" parent="hQ3t_e0Qlo94Dioe-Yxh-1" vertex="1">
          <mxGeometry x="160" y="330" width="100" height="80" as="geometry" />
        </mxCell>
        <mxCell id="E1t31NTn59jSzASZzc1J-24" value="Nie&lt;br&gt;" style="text;html=1;align=center;verticalAlign=middle;resizable=0;points=[];autosize=1;strokeColor=none;fillColor=none;" parent="hQ3t_e0Qlo94Dioe-Yxh-1" vertex="1">
          <mxGeometry x="500" y="270" width="30" height="20" as="geometry" />
        </mxCell>
        <mxCell id="E1t31NTn59jSzASZzc1J-25" value="Tak" style="text;html=1;align=center;verticalAlign=middle;resizable=0;points=[];autosize=1;strokeColor=none;fillColor=none;" parent="hQ3t_e0Qlo94Dioe-Yxh-1" vertex="1">
          <mxGeometry x="675" y="390" width="30" height="20" as="geometry" />
        </mxCell>
        <mxCell id="E1t31NTn59jSzASZzc1J-26" value="Tak&lt;br&gt;" style="text;html=1;align=center;verticalAlign=middle;resizable=0;points=[];autosize=1;strokeColor=none;fillColor=none;" parent="hQ3t_e0Qlo94Dioe-Yxh-1" vertex="1">
          <mxGeometry x="165" y="410" width="30" height="20" as="geometry" />
        </mxCell>
      </root>
    </mxGraphModel>
  </diagram>
  <diagram id="ZQ3tWkQ_sDueG1cd2iUj" name="Zadanie 5">
    <mxGraphModel dx="1038" dy="491" grid="1" gridSize="10" guides="1" tooltips="1" connect="1" arrows="1" fold="1" page="1" pageScale="1" pageWidth="827" pageHeight="1169" math="0" shadow="0">
      <root>
        <mxCell id="IiiFrf6FwYK38AOxTCJv-0" />
        <mxCell id="IiiFrf6FwYK38AOxTCJv-1" parent="IiiFrf6FwYK38AOxTCJv-0" />
        <mxCell id="IiiFrf6FwYK38AOxTCJv-2" style="edgeStyle=orthogonalEdgeStyle;rounded=0;orthogonalLoop=1;jettySize=auto;html=1;" edge="1" parent="IiiFrf6FwYK38AOxTCJv-1">
          <mxGeometry relative="1" as="geometry">
            <mxPoint x="400" y="220" as="targetPoint" />
            <mxPoint x="400" y="90" as="sourcePoint" />
          </mxGeometry>
        </mxCell>
        <mxCell id="IiiFrf6FwYK38AOxTCJv-3" value="Koniec" style="ellipse;whiteSpace=wrap;html=1;" vertex="1" parent="IiiFrf6FwYK38AOxTCJv-1">
          <mxGeometry x="510" y="780" width="120" height="80" as="geometry" />
        </mxCell>
        <mxCell id="IiiFrf6FwYK38AOxTCJv-17" value="Start" style="ellipse;whiteSpace=wrap;html=1;" vertex="1" parent="IiiFrf6FwYK38AOxTCJv-1">
          <mxGeometry x="340" y="40" width="120" height="80" as="geometry" />
        </mxCell>
        <mxCell id="IiiFrf6FwYK38AOxTCJv-19" style="edgeStyle=orthogonalEdgeStyle;rounded=0;orthogonalLoop=1;jettySize=auto;html=1;" edge="1" parent="IiiFrf6FwYK38AOxTCJv-1" source="IiiFrf6FwYK38AOxTCJv-18" target="IiiFrf6FwYK38AOxTCJv-20">
          <mxGeometry relative="1" as="geometry">
            <mxPoint x="400" y="330" as="targetPoint" />
          </mxGeometry>
        </mxCell>
        <mxCell id="IiiFrf6FwYK38AOxTCJv-18" value="suma równa śie 0" style="rounded=1;whiteSpace=wrap;html=1;" vertex="1" parent="IiiFrf6FwYK38AOxTCJv-1">
          <mxGeometry x="340" y="230" width="120" height="60" as="geometry" />
        </mxCell>
        <mxCell id="IiiFrf6FwYK38AOxTCJv-22" value="" style="edgeStyle=orthogonalEdgeStyle;rounded=0;orthogonalLoop=1;jettySize=auto;html=1;" edge="1" parent="IiiFrf6FwYK38AOxTCJv-1" source="IiiFrf6FwYK38AOxTCJv-20" target="IiiFrf6FwYK38AOxTCJv-21">
          <mxGeometry relative="1" as="geometry" />
        </mxCell>
        <mxCell id="IiiFrf6FwYK38AOxTCJv-20" value="podaj n" style="rounded=1;whiteSpace=wrap;html=1;" vertex="1" parent="IiiFrf6FwYK38AOxTCJv-1">
          <mxGeometry x="340" y="320" width="120" height="60" as="geometry" />
        </mxCell>
        <mxCell id="IiiFrf6FwYK38AOxTCJv-23" style="edgeStyle=orthogonalEdgeStyle;rounded=0;orthogonalLoop=1;jettySize=auto;html=1;" edge="1" parent="IiiFrf6FwYK38AOxTCJv-1" source="IiiFrf6FwYK38AOxTCJv-21">
          <mxGeometry relative="1" as="geometry">
            <mxPoint x="400" y="510" as="targetPoint" />
          </mxGeometry>
        </mxCell>
        <mxCell id="IiiFrf6FwYK38AOxTCJv-21" value="i równa śie 0" style="rounded=1;whiteSpace=wrap;html=1;" vertex="1" parent="IiiFrf6FwYK38AOxTCJv-1">
          <mxGeometry x="340" y="410" width="120" height="60" as="geometry" />
        </mxCell>
        <mxCell id="IiiFrf6FwYK38AOxTCJv-25" style="edgeStyle=orthogonalEdgeStyle;rounded=0;orthogonalLoop=1;jettySize=auto;html=1;" edge="1" parent="IiiFrf6FwYK38AOxTCJv-1" source="IiiFrf6FwYK38AOxTCJv-24">
          <mxGeometry relative="1" as="geometry">
            <mxPoint x="510" y="550" as="targetPoint" />
          </mxGeometry>
        </mxCell>
        <mxCell id="IiiFrf6FwYK38AOxTCJv-32" value="" style="edgeStyle=orthogonalEdgeStyle;rounded=0;orthogonalLoop=1;jettySize=auto;html=1;" edge="1" parent="IiiFrf6FwYK38AOxTCJv-1" source="IiiFrf6FwYK38AOxTCJv-24" target="IiiFrf6FwYK38AOxTCJv-29">
          <mxGeometry relative="1" as="geometry" />
        </mxCell>
        <mxCell id="IiiFrf6FwYK38AOxTCJv-24" value="i &amp;lt; n" style="rhombus;whiteSpace=wrap;html=1;" vertex="1" parent="IiiFrf6FwYK38AOxTCJv-1">
          <mxGeometry x="360" y="510" width="80" height="80" as="geometry" />
        </mxCell>
        <mxCell id="IiiFrf6FwYK38AOxTCJv-27" value="Tak" style="text;html=1;align=center;verticalAlign=middle;resizable=0;points=[];autosize=1;strokeColor=none;fillColor=none;" vertex="1" parent="IiiFrf6FwYK38AOxTCJv-1">
          <mxGeometry x="370" y="590" width="30" height="20" as="geometry" />
        </mxCell>
        <mxCell id="IiiFrf6FwYK38AOxTCJv-28" value="Nie" style="text;html=1;align=center;verticalAlign=middle;resizable=0;points=[];autosize=1;strokeColor=none;fillColor=none;" vertex="1" parent="IiiFrf6FwYK38AOxTCJv-1">
          <mxGeometry x="435" y="520" width="30" height="20" as="geometry" />
        </mxCell>
        <mxCell id="IiiFrf6FwYK38AOxTCJv-30" style="edgeStyle=orthogonalEdgeStyle;rounded=0;orthogonalLoop=1;jettySize=auto;html=1;" edge="1" parent="IiiFrf6FwYK38AOxTCJv-1" source="IiiFrf6FwYK38AOxTCJv-29" target="IiiFrf6FwYK38AOxTCJv-31">
          <mxGeometry relative="1" as="geometry">
            <mxPoint x="80" y="620" as="targetPoint" />
          </mxGeometry>
        </mxCell>
        <mxCell id="IiiFrf6FwYK38AOxTCJv-29" value="&lt;span style=&quot;color: rgb(82 , 96 , 105) ; font-family: &amp;#34;roboto&amp;#34; , sans-serif ; font-size: 14px ; text-align: left ; background-color: rgb(255 , 255 , 255)&quot;&gt;Wczytaj(a)&lt;/span&gt;" style="rounded=1;whiteSpace=wrap;html=1;" vertex="1" parent="IiiFrf6FwYK38AOxTCJv-1">
          <mxGeometry x="340" y="640" width="120" height="60" as="geometry" />
        </mxCell>
        <mxCell id="IiiFrf6FwYK38AOxTCJv-33" style="edgeStyle=orthogonalEdgeStyle;rounded=0;orthogonalLoop=1;jettySize=auto;html=1;" edge="1" parent="IiiFrf6FwYK38AOxTCJv-1" source="IiiFrf6FwYK38AOxTCJv-31" target="IiiFrf6FwYK38AOxTCJv-34">
          <mxGeometry relative="1" as="geometry">
            <mxPoint x="190" y="580" as="targetPoint" />
          </mxGeometry>
        </mxCell>
        <mxCell id="IiiFrf6FwYK38AOxTCJv-31" value="dodaj do sumy a" style="rounded=1;whiteSpace=wrap;html=1;" vertex="1" parent="IiiFrf6FwYK38AOxTCJv-1">
          <mxGeometry x="130" y="640" width="120" height="60" as="geometry" />
        </mxCell>
        <mxCell id="IiiFrf6FwYK38AOxTCJv-35" style="edgeStyle=orthogonalEdgeStyle;rounded=0;orthogonalLoop=1;jettySize=auto;html=1;" edge="1" parent="IiiFrf6FwYK38AOxTCJv-1" source="IiiFrf6FwYK38AOxTCJv-34" target="IiiFrf6FwYK38AOxTCJv-24">
          <mxGeometry relative="1" as="geometry" />
        </mxCell>
        <mxCell id="IiiFrf6FwYK38AOxTCJv-34" value="dodaj 1 do i" style="rounded=1;whiteSpace=wrap;html=1;" vertex="1" parent="IiiFrf6FwYK38AOxTCJv-1">
          <mxGeometry x="130" y="520" width="120" height="60" as="geometry" />
        </mxCell>
        <mxCell id="IiiFrf6FwYK38AOxTCJv-37" style="edgeStyle=orthogonalEdgeStyle;rounded=0;orthogonalLoop=1;jettySize=auto;html=1;" edge="1" parent="IiiFrf6FwYK38AOxTCJv-1" source="IiiFrf6FwYK38AOxTCJv-36">
          <mxGeometry relative="1" as="geometry">
            <mxPoint x="570" y="779.5999755859375" as="targetPoint" />
          </mxGeometry>
        </mxCell>
        <mxCell id="IiiFrf6FwYK38AOxTCJv-36" value="&lt;div style=&quot;text-align: left&quot;&gt;&lt;span style=&quot;font-size: 14px&quot;&gt;&lt;font color=&quot;#526069&quot; face=&quot;Roboto, sans-serif&quot;&gt;Wypisz sumę&lt;/font&gt;&lt;/span&gt;&lt;/div&gt;" style="whiteSpace=wrap;html=1;" vertex="1" parent="IiiFrf6FwYK38AOxTCJv-1">
          <mxGeometry x="510" y="525" width="120" height="60" as="geometry" />
        </mxCell>
      </root>
    </mxGraphModel>
  </diagram>
  <diagram id="5Ht1oYHVFXZ_jBOCT0UL" name="Zadanie 7">
    <mxGraphModel dx="1038" dy="491" grid="1" gridSize="10" guides="1" tooltips="1" connect="1" arrows="1" fold="1" page="1" pageScale="1" pageWidth="827" pageHeight="1169" math="0" shadow="0">
      <root>
        <mxCell id="dJgMaom5qi2vTt20aVx5-0" />
        <mxCell id="dJgMaom5qi2vTt20aVx5-1" parent="dJgMaom5qi2vTt20aVx5-0" />
        <mxCell id="dJgMaom5qi2vTt20aVx5-2" style="edgeStyle=orthogonalEdgeStyle;rounded=0;orthogonalLoop=1;jettySize=auto;html=1;" edge="1" parent="dJgMaom5qi2vTt20aVx5-1">
          <mxGeometry relative="1" as="geometry">
            <mxPoint x="400" y="220" as="targetPoint" />
            <mxPoint x="400" y="90" as="sourcePoint" />
          </mxGeometry>
        </mxCell>
        <mxCell id="dJgMaom5qi2vTt20aVx5-3" value="Koniec" style="ellipse;whiteSpace=wrap;html=1;" vertex="1" parent="dJgMaom5qi2vTt20aVx5-1">
          <mxGeometry x="335" y="680" width="120" height="80" as="geometry" />
        </mxCell>
        <mxCell id="dJgMaom5qi2vTt20aVx5-4" value="Start" style="ellipse;whiteSpace=wrap;html=1;" vertex="1" parent="dJgMaom5qi2vTt20aVx5-1">
          <mxGeometry x="340" y="40" width="120" height="80" as="geometry" />
        </mxCell>
        <mxCell id="dJgMaom5qi2vTt20aVx5-5" style="edgeStyle=orthogonalEdgeStyle;rounded=0;orthogonalLoop=1;jettySize=auto;html=1;" edge="1" parent="dJgMaom5qi2vTt20aVx5-1" source="dJgMaom5qi2vTt20aVx5-6" target="dJgMaom5qi2vTt20aVx5-8">
          <mxGeometry relative="1" as="geometry">
            <mxPoint x="400" y="330" as="targetPoint" />
          </mxGeometry>
        </mxCell>
        <mxCell id="dJgMaom5qi2vTt20aVx5-6" value="podaj x" style="rounded=1;whiteSpace=wrap;html=1;" vertex="1" parent="dJgMaom5qi2vTt20aVx5-1">
          <mxGeometry x="340" y="230" width="120" height="60" as="geometry" />
        </mxCell>
        <mxCell id="dJgMaom5qi2vTt20aVx5-7" value="" style="edgeStyle=orthogonalEdgeStyle;rounded=0;orthogonalLoop=1;jettySize=auto;html=1;" edge="1" parent="dJgMaom5qi2vTt20aVx5-1" source="dJgMaom5qi2vTt20aVx5-8">
          <mxGeometry relative="1" as="geometry">
            <mxPoint x="400" y="410" as="targetPoint" />
          </mxGeometry>
        </mxCell>
        <mxCell id="dJgMaom5qi2vTt20aVx5-8" value="podaj z które nie równa śie 0" style="rounded=1;whiteSpace=wrap;html=1;" vertex="1" parent="dJgMaom5qi2vTt20aVx5-1">
          <mxGeometry x="340" y="320" width="120" height="60" as="geometry" />
        </mxCell>
        <mxCell id="dJgMaom5qi2vTt20aVx5-9" style="edgeStyle=orthogonalEdgeStyle;rounded=0;orthogonalLoop=1;jettySize=auto;html=1;" edge="1" parent="dJgMaom5qi2vTt20aVx5-1">
          <mxGeometry relative="1" as="geometry">
            <mxPoint x="400" y="510" as="targetPoint" />
            <mxPoint x="400" y="470" as="sourcePoint" />
          </mxGeometry>
        </mxCell>
        <mxCell id="dJgMaom5qi2vTt20aVx5-11" style="edgeStyle=orthogonalEdgeStyle;rounded=0;orthogonalLoop=1;jettySize=auto;html=1;" edge="1" parent="dJgMaom5qi2vTt20aVx5-1" source="dJgMaom5qi2vTt20aVx5-13">
          <mxGeometry relative="1" as="geometry">
            <mxPoint x="470" y="350" as="targetPoint" />
            <Array as="points">
              <mxPoint x="510" y="470" />
            </Array>
          </mxGeometry>
        </mxCell>
        <mxCell id="dJgMaom5qi2vTt20aVx5-24" style="edgeStyle=orthogonalEdgeStyle;rounded=0;orthogonalLoop=1;jettySize=auto;html=1;" edge="1" parent="dJgMaom5qi2vTt20aVx5-1" source="dJgMaom5qi2vTt20aVx5-13">
          <mxGeometry relative="1" as="geometry">
            <mxPoint x="395" y="550" as="targetPoint" />
          </mxGeometry>
        </mxCell>
        <mxCell id="dJgMaom5qi2vTt20aVx5-13" value="z jes równa 0?" style="rhombus;whiteSpace=wrap;html=1;" vertex="1" parent="dJgMaom5qi2vTt20aVx5-1">
          <mxGeometry x="355" y="430" width="80" height="80" as="geometry" />
        </mxCell>
        <mxCell id="dJgMaom5qi2vTt20aVx5-15" value="Tak" style="text;html=1;align=center;verticalAlign=middle;resizable=0;points=[];autosize=1;strokeColor=none;fillColor=none;" vertex="1" parent="dJgMaom5qi2vTt20aVx5-1">
          <mxGeometry x="450" y="450" width="30" height="20" as="geometry" />
        </mxCell>
        <mxCell id="dJgMaom5qi2vTt20aVx5-25" value="Nie" style="text;html=1;align=center;verticalAlign=middle;resizable=0;points=[];autosize=1;strokeColor=none;fillColor=none;" vertex="1" parent="dJgMaom5qi2vTt20aVx5-1">
          <mxGeometry x="335" y="500" width="30" height="20" as="geometry" />
        </mxCell>
        <mxCell id="dJgMaom5qi2vTt20aVx5-29" style="edgeStyle=orthogonalEdgeStyle;rounded=0;orthogonalLoop=1;jettySize=auto;html=1;" edge="1" parent="dJgMaom5qi2vTt20aVx5-1" source="dJgMaom5qi2vTt20aVx5-27">
          <mxGeometry relative="1" as="geometry">
            <mxPoint x="395" y="670" as="targetPoint" />
          </mxGeometry>
        </mxCell>
        <mxCell id="dJgMaom5qi2vTt20aVx5-27" value="podziel x na z" style="rounded=1;whiteSpace=wrap;html=1;" vertex="1" parent="dJgMaom5qi2vTt20aVx5-1">
          <mxGeometry x="335" y="554.5" width="120" height="60" as="geometry" />
        </mxCell>
        <mxCell id="dJgMaom5qi2vTt20aVx5-28" style="edgeStyle=orthogonalEdgeStyle;rounded=0;orthogonalLoop=1;jettySize=auto;html=1;exitX=0.5;exitY=1;exitDx=0;exitDy=0;" edge="1" parent="dJgMaom5qi2vTt20aVx5-1" source="dJgMaom5qi2vTt20aVx5-27" target="dJgMaom5qi2vTt20aVx5-27">
          <mxGeometry relative="1" as="geometry" />
        </mxCell>
      </root>
    </mxGraphModel>
  </diagram>
  <diagram id="M0IUMIoAdCLukIv5dQrG" name="Zadanie 8">
    <mxGraphModel dx="1038" dy="547" grid="1" gridSize="10" guides="1" tooltips="1" connect="1" arrows="1" fold="1" page="1" pageScale="1" pageWidth="827" pageHeight="1169" math="0" shadow="0">
      <root>
        <mxCell id="vIW-FHKn24h_V-lYzm2u-0" />
        <mxCell id="vIW-FHKn24h_V-lYzm2u-1" parent="vIW-FHKn24h_V-lYzm2u-0" />
        <mxCell id="hq6c0idQlihKusZeeASV-0" style="edgeStyle=orthogonalEdgeStyle;rounded=0;orthogonalLoop=1;jettySize=auto;html=1;" parent="vIW-FHKn24h_V-lYzm2u-1" edge="1">
          <mxGeometry relative="1" as="geometry">
            <mxPoint x="400" y="220" as="targetPoint" />
            <mxPoint x="400" y="90" as="sourcePoint" />
          </mxGeometry>
        </mxCell>
        <mxCell id="hq6c0idQlihKusZeeASV-1" value="Koniec" style="ellipse;whiteSpace=wrap;html=1;" parent="vIW-FHKn24h_V-lYzm2u-1" vertex="1">
          <mxGeometry x="130" y="600" width="120" height="80" as="geometry" />
        </mxCell>
        <mxCell id="hq6c0idQlihKusZeeASV-2" value="Start" style="ellipse;whiteSpace=wrap;html=1;" parent="vIW-FHKn24h_V-lYzm2u-1" vertex="1">
          <mxGeometry x="340" y="40" width="120" height="80" as="geometry" />
        </mxCell>
        <mxCell id="hq6c0idQlihKusZeeASV-3" style="edgeStyle=orthogonalEdgeStyle;rounded=0;orthogonalLoop=1;jettySize=auto;html=1;" parent="vIW-FHKn24h_V-lYzm2u-1" source="hq6c0idQlihKusZeeASV-4" edge="1">
          <mxGeometry relative="1" as="geometry">
            <mxPoint x="400" y="320" as="targetPoint" />
          </mxGeometry>
        </mxCell>
        <mxCell id="hq6c0idQlihKusZeeASV-4" value="podaj liczbę" style="rounded=1;whiteSpace=wrap;html=1;" parent="vIW-FHKn24h_V-lYzm2u-1" vertex="1">
          <mxGeometry x="340" y="230" width="120" height="60" as="geometry" />
        </mxCell>
        <mxCell id="hq6c0idQlihKusZeeASV-16" style="edgeStyle=orthogonalEdgeStyle;rounded=0;orthogonalLoop=1;jettySize=auto;html=1;" parent="vIW-FHKn24h_V-lYzm2u-1" source="hq6c0idQlihKusZeeASV-10" edge="1">
          <mxGeometry relative="1" as="geometry">
            <mxPoint x="400" y="460" as="targetPoint" />
          </mxGeometry>
        </mxCell>
        <mxCell id="hq6c0idQlihKusZeeASV-18" style="edgeStyle=orthogonalEdgeStyle;rounded=0;orthogonalLoop=1;jettySize=auto;html=1;" parent="vIW-FHKn24h_V-lYzm2u-1" source="hq6c0idQlihKusZeeASV-10" edge="1">
          <mxGeometry relative="1" as="geometry">
            <mxPoint x="290" y="370" as="targetPoint" />
          </mxGeometry>
        </mxCell>
        <mxCell id="hq6c0idQlihKusZeeASV-10" value="z jest&lt;br&gt;&amp;nbsp;równa 0?" style="rhombus;whiteSpace=wrap;html=1;" parent="vIW-FHKn24h_V-lYzm2u-1" vertex="1">
          <mxGeometry x="360" y="330" width="80" height="80" as="geometry" />
        </mxCell>
        <mxCell id="hq6c0idQlihKusZeeASV-11" value="Tak" style="text;html=1;align=center;verticalAlign=middle;resizable=0;points=[];autosize=1;strokeColor=none;fillColor=none;" parent="vIW-FHKn24h_V-lYzm2u-1" vertex="1">
          <mxGeometry x="410" y="400" width="30" height="20" as="geometry" />
        </mxCell>
        <mxCell id="hq6c0idQlihKusZeeASV-15" style="edgeStyle=orthogonalEdgeStyle;rounded=0;orthogonalLoop=1;jettySize=auto;html=1;exitX=0.5;exitY=1;exitDx=0;exitDy=0;" parent="vIW-FHKn24h_V-lYzm2u-1" edge="1">
          <mxGeometry relative="1" as="geometry">
            <mxPoint x="395" y="614.5" as="sourcePoint" />
            <mxPoint x="395" y="614.5" as="targetPoint" />
          </mxGeometry>
        </mxCell>
        <mxCell id="hq6c0idQlihKusZeeASV-29" style="edgeStyle=orthogonalEdgeStyle;rounded=0;orthogonalLoop=1;jettySize=auto;html=1;" parent="vIW-FHKn24h_V-lYzm2u-1" source="hq6c0idQlihKusZeeASV-17" edge="1">
          <mxGeometry relative="1" as="geometry">
            <mxPoint x="260" y="640" as="targetPoint" />
            <Array as="points">
              <mxPoint x="400" y="630" />
              <mxPoint x="400" y="630" />
            </Array>
          </mxGeometry>
        </mxCell>
        <mxCell id="hq6c0idQlihKusZeeASV-17" value="&lt;span&gt;z jest równa 0?&lt;/span&gt;" style="rounded=1;whiteSpace=wrap;html=1;" parent="vIW-FHKn24h_V-lYzm2u-1" vertex="1">
          <mxGeometry x="340" y="470" width="120" height="60" as="geometry" />
        </mxCell>
        <mxCell id="hq6c0idQlihKusZeeASV-19" value="Nie&lt;br&gt;" style="text;html=1;align=center;verticalAlign=middle;resizable=0;points=[];autosize=1;strokeColor=none;fillColor=none;" parent="vIW-FHKn24h_V-lYzm2u-1" vertex="1">
          <mxGeometry x="315" y="340" width="30" height="20" as="geometry" />
        </mxCell>
        <mxCell id="hq6c0idQlihKusZeeASV-22" style="edgeStyle=orthogonalEdgeStyle;rounded=0;orthogonalLoop=1;jettySize=auto;html=1;exitX=0;exitY=0.5;exitDx=0;exitDy=0;" parent="vIW-FHKn24h_V-lYzm2u-1" source="hq6c0idQlihKusZeeASV-21" edge="1">
          <mxGeometry relative="1" as="geometry">
            <mxPoint x="130" y="370" as="targetPoint" />
          </mxGeometry>
        </mxCell>
        <mxCell id="hq6c0idQlihKusZeeASV-26" style="edgeStyle=orthogonalEdgeStyle;rounded=0;orthogonalLoop=1;jettySize=auto;html=1;entryX=0.5;entryY=0;entryDx=0;entryDy=0;" parent="vIW-FHKn24h_V-lYzm2u-1" source="hq6c0idQlihKusZeeASV-21" target="hq6c0idQlihKusZeeASV-27" edge="1">
          <mxGeometry relative="1" as="geometry">
            <mxPoint x="240" y="450" as="targetPoint" />
          </mxGeometry>
        </mxCell>
        <mxCell id="hq6c0idQlihKusZeeASV-21" value="liczba jest większa od zera?" style="rhombus;whiteSpace=wrap;html=1;" parent="vIW-FHKn24h_V-lYzm2u-1" vertex="1">
          <mxGeometry x="200" y="330" width="80" height="80" as="geometry" />
        </mxCell>
        <mxCell id="hq6c0idQlihKusZeeASV-23" value="Tak&lt;br&gt;" style="text;html=1;align=center;verticalAlign=middle;resizable=0;points=[];autosize=1;strokeColor=none;fillColor=none;" parent="vIW-FHKn24h_V-lYzm2u-1" vertex="1">
          <mxGeometry x="145" y="340" width="30" height="20" as="geometry" />
        </mxCell>
        <mxCell id="hq6c0idQlihKusZeeASV-31" style="edgeStyle=orthogonalEdgeStyle;rounded=0;orthogonalLoop=1;jettySize=auto;html=1;" parent="vIW-FHKn24h_V-lYzm2u-1" source="hq6c0idQlihKusZeeASV-24" target="hq6c0idQlihKusZeeASV-1" edge="1">
          <mxGeometry relative="1" as="geometry">
            <mxPoint x="120" y="640" as="targetPoint" />
            <Array as="points">
              <mxPoint x="60" y="630" />
              <mxPoint x="120" y="630" />
              <mxPoint x="120" y="640" />
            </Array>
          </mxGeometry>
        </mxCell>
        <mxCell id="hq6c0idQlihKusZeeASV-24" value="&lt;span&gt;liczba jest większa od zera&lt;/span&gt;" style="rounded=1;whiteSpace=wrap;html=1;" parent="vIW-FHKn24h_V-lYzm2u-1" vertex="1">
          <mxGeometry y="340" width="120" height="60" as="geometry" />
        </mxCell>
        <mxCell id="hq6c0idQlihKusZeeASV-25" value="Nie&lt;br&gt;" style="text;html=1;align=center;verticalAlign=middle;resizable=0;points=[];autosize=1;strokeColor=none;fillColor=none;" parent="vIW-FHKn24h_V-lYzm2u-1" vertex="1">
          <mxGeometry x="260" y="400" width="30" height="20" as="geometry" />
        </mxCell>
        <mxCell id="hq6c0idQlihKusZeeASV-30" style="edgeStyle=orthogonalEdgeStyle;rounded=0;orthogonalLoop=1;jettySize=auto;html=1;" parent="vIW-FHKn24h_V-lYzm2u-1" source="hq6c0idQlihKusZeeASV-27" edge="1">
          <mxGeometry relative="1" as="geometry">
            <mxPoint x="200" y="590" as="targetPoint" />
          </mxGeometry>
        </mxCell>
        <mxCell id="hq6c0idQlihKusZeeASV-27" value="&lt;span&gt;liczba jest mniejsza od zera&lt;/span&gt;" style="rounded=1;whiteSpace=wrap;html=1;" parent="vIW-FHKn24h_V-lYzm2u-1" vertex="1">
          <mxGeometry x="180" y="470" width="120" height="60" as="geometry" />
        </mxCell>
      </root>
    </mxGraphModel>
  </diagram>
  <diagram id="Rq8n7ixGYA_zt59CRvVC" name="Page-9">
    <mxGraphModel dx="1038" dy="547" grid="1" gridSize="10" guides="1" tooltips="1" connect="1" arrows="1" fold="1" page="1" pageScale="1" pageWidth="827" pageHeight="1169" math="0" shadow="0">
      <root>
        <mxCell id="ZhNm-5I8_1XgrbTczguV-0" />
        <mxCell id="ZhNm-5I8_1XgrbTczguV-1" parent="ZhNm-5I8_1XgrbTczguV-0" />
        <mxCell id="mD0-L2MR0gskAXG_8AgV-0" style="edgeStyle=orthogonalEdgeStyle;rounded=0;orthogonalLoop=1;jettySize=auto;html=1;" edge="1" parent="ZhNm-5I8_1XgrbTczguV-1">
          <mxGeometry relative="1" as="geometry">
            <mxPoint x="400" y="200" as="targetPoint" />
            <mxPoint x="399.5" y="120" as="sourcePoint" />
            <Array as="points">
              <mxPoint x="400.5" y="120" />
              <mxPoint x="400.5" y="160" />
            </Array>
          </mxGeometry>
        </mxCell>
        <mxCell id="mD0-L2MR0gskAXG_8AgV-1" value="Koniec" style="ellipse;whiteSpace=wrap;html=1;" vertex="1" parent="ZhNm-5I8_1XgrbTczguV-1">
          <mxGeometry x="330" y="470" width="120" height="80" as="geometry" />
        </mxCell>
        <mxCell id="mD0-L2MR0gskAXG_8AgV-2" value="Start" style="ellipse;whiteSpace=wrap;html=1;" vertex="1" parent="ZhNm-5I8_1XgrbTczguV-1">
          <mxGeometry x="340" y="40" width="120" height="80" as="geometry" />
        </mxCell>
        <mxCell id="mD0-L2MR0gskAXG_8AgV-3" style="edgeStyle=orthogonalEdgeStyle;rounded=0;orthogonalLoop=1;jettySize=auto;html=1;" edge="1" parent="ZhNm-5I8_1XgrbTczguV-1" source="mD0-L2MR0gskAXG_8AgV-4">
          <mxGeometry relative="1" as="geometry">
            <mxPoint x="400" y="320" as="targetPoint" />
          </mxGeometry>
        </mxCell>
        <mxCell id="mD0-L2MR0gskAXG_8AgV-4" value="int a, b" style="rounded=1;whiteSpace=wrap;html=1;" vertex="1" parent="ZhNm-5I8_1XgrbTczguV-1">
          <mxGeometry x="340" y="200" width="120" height="60" as="geometry" />
        </mxCell>
        <mxCell id="mD0-L2MR0gskAXG_8AgV-9" style="edgeStyle=orthogonalEdgeStyle;rounded=0;orthogonalLoop=1;jettySize=auto;html=1;exitX=0.5;exitY=1;exitDx=0;exitDy=0;" edge="1" parent="ZhNm-5I8_1XgrbTczguV-1">
          <mxGeometry relative="1" as="geometry">
            <mxPoint x="395" y="614.5" as="sourcePoint" />
            <mxPoint x="395" y="614.5" as="targetPoint" />
          </mxGeometry>
        </mxCell>
        <mxCell id="mD0-L2MR0gskAXG_8AgV-23" style="edgeStyle=orthogonalEdgeStyle;rounded=0;orthogonalLoop=1;jettySize=auto;html=1;" edge="1" parent="ZhNm-5I8_1XgrbTczguV-1" source="mD0-L2MR0gskAXG_8AgV-22">
          <mxGeometry relative="1" as="geometry">
            <mxPoint x="500" y="360" as="targetPoint" />
          </mxGeometry>
        </mxCell>
        <mxCell id="mD0-L2MR0gskAXG_8AgV-24" style="edgeStyle=orthogonalEdgeStyle;rounded=0;orthogonalLoop=1;jettySize=auto;html=1;" edge="1" parent="ZhNm-5I8_1XgrbTczguV-1" source="mD0-L2MR0gskAXG_8AgV-22" target="mD0-L2MR0gskAXG_8AgV-25">
          <mxGeometry relative="1" as="geometry">
            <mxPoint x="310" y="360" as="targetPoint" />
          </mxGeometry>
        </mxCell>
        <mxCell id="mD0-L2MR0gskAXG_8AgV-22" value="a równa śie b ?&amp;nbsp;" style="rhombus;whiteSpace=wrap;html=1;" vertex="1" parent="ZhNm-5I8_1XgrbTczguV-1">
          <mxGeometry x="360" y="320" width="80" height="80" as="geometry" />
        </mxCell>
        <mxCell id="mD0-L2MR0gskAXG_8AgV-29" style="edgeStyle=orthogonalEdgeStyle;rounded=0;orthogonalLoop=1;jettySize=auto;html=1;entryX=0;entryY=0.5;entryDx=0;entryDy=0;" edge="1" parent="ZhNm-5I8_1XgrbTczguV-1" source="mD0-L2MR0gskAXG_8AgV-25" target="mD0-L2MR0gskAXG_8AgV-1">
          <mxGeometry relative="1" as="geometry">
            <mxPoint x="210" y="530" as="targetPoint" />
            <Array as="points">
              <mxPoint x="200" y="510" />
            </Array>
          </mxGeometry>
        </mxCell>
        <mxCell id="mD0-L2MR0gskAXG_8AgV-25" value="wyswietł 1" style="rounded=1;whiteSpace=wrap;html=1;" vertex="1" parent="ZhNm-5I8_1XgrbTczguV-1">
          <mxGeometry x="150" y="330" width="120" height="60" as="geometry" />
        </mxCell>
        <mxCell id="mD0-L2MR0gskAXG_8AgV-30" style="edgeStyle=orthogonalEdgeStyle;rounded=0;orthogonalLoop=1;jettySize=auto;html=1;" edge="1" parent="ZhNm-5I8_1XgrbTczguV-1" source="mD0-L2MR0gskAXG_8AgV-26">
          <mxGeometry relative="1" as="geometry">
            <mxPoint x="460" y="510" as="targetPoint" />
            <Array as="points">
              <mxPoint x="560" y="510" />
              <mxPoint x="460" y="510" />
            </Array>
          </mxGeometry>
        </mxCell>
        <mxCell id="mD0-L2MR0gskAXG_8AgV-26" value="wyswietł 0&lt;br&gt;" style="rounded=1;whiteSpace=wrap;html=1;" vertex="1" parent="ZhNm-5I8_1XgrbTczguV-1">
          <mxGeometry x="500" y="330" width="120" height="60" as="geometry" />
        </mxCell>
        <mxCell id="mD0-L2MR0gskAXG_8AgV-27" value="Nie" style="text;html=1;align=center;verticalAlign=middle;resizable=0;points=[];autosize=1;strokeColor=none;fillColor=none;" vertex="1" parent="ZhNm-5I8_1XgrbTczguV-1">
          <mxGeometry x="340" y="320" width="30" height="20" as="geometry" />
        </mxCell>
        <mxCell id="mD0-L2MR0gskAXG_8AgV-28" value="Tak&lt;br&gt;" style="text;html=1;align=center;verticalAlign=middle;resizable=0;points=[];autosize=1;strokeColor=none;fillColor=none;" vertex="1" parent="ZhNm-5I8_1XgrbTczguV-1">
          <mxGeometry x="430" y="320" width="30" height="20" as="geometry" />
        </mxCell>
      </root>
    </mxGraphModel>
  </diagram>
  <diagram id="JC7FfCoSZDW4OnQMML3U" name="Page-10">
    <mxGraphModel dx="1038" dy="547" grid="1" gridSize="10" guides="1" tooltips="1" connect="1" arrows="1" fold="1" page="1" pageScale="1" pageWidth="827" pageHeight="1169" math="0" shadow="0">
      <root>
        <mxCell id="aKL1rDs1hcDGGf5aMhH5-0" />
        <mxCell id="aKL1rDs1hcDGGf5aMhH5-1" parent="aKL1rDs1hcDGGf5aMhH5-0" />
        <mxCell id="3ZgUCJnibq-jRLs9IPtt-0" style="edgeStyle=orthogonalEdgeStyle;rounded=0;orthogonalLoop=1;jettySize=auto;html=1;" edge="1" parent="aKL1rDs1hcDGGf5aMhH5-1">
          <mxGeometry relative="1" as="geometry">
            <mxPoint x="400" y="200" as="targetPoint" />
            <mxPoint x="399.5" y="120" as="sourcePoint" />
            <Array as="points">
              <mxPoint x="400.5" y="120" />
              <mxPoint x="400.5" y="160" />
            </Array>
          </mxGeometry>
        </mxCell>
        <mxCell id="3ZgUCJnibq-jRLs9IPtt-2" value="Start" style="ellipse;whiteSpace=wrap;html=1;" vertex="1" parent="aKL1rDs1hcDGGf5aMhH5-1">
          <mxGeometry x="340" y="40" width="120" height="80" as="geometry" />
        </mxCell>
        <mxCell id="9xnYGfFbQPb3FfeUwhM6-0" style="edgeStyle=orthogonalEdgeStyle;rounded=0;orthogonalLoop=1;jettySize=auto;html=1;" edge="1" parent="aKL1rDs1hcDGGf5aMhH5-1">
          <mxGeometry relative="1" as="geometry">
            <mxPoint x="400" y="200" as="targetPoint" />
            <mxPoint x="399.5" y="120" as="sourcePoint" />
            <Array as="points">
              <mxPoint x="400.5" y="120" />
              <mxPoint x="400.5" y="160" />
            </Array>
          </mxGeometry>
        </mxCell>
        <mxCell id="9xnYGfFbQPb3FfeUwhM6-1" value="Koniec" style="ellipse;whiteSpace=wrap;html=1;" vertex="1" parent="aKL1rDs1hcDGGf5aMhH5-1">
          <mxGeometry x="340" y="850" width="120" height="80" as="geometry" />
        </mxCell>
        <mxCell id="9xnYGfFbQPb3FfeUwhM6-2" style="edgeStyle=orthogonalEdgeStyle;rounded=0;orthogonalLoop=1;jettySize=auto;html=1;" edge="1" parent="aKL1rDs1hcDGGf5aMhH5-1" source="9xnYGfFbQPb3FfeUwhM6-3">
          <mxGeometry relative="1" as="geometry">
            <mxPoint x="400" y="320" as="targetPoint" />
          </mxGeometry>
        </mxCell>
        <mxCell id="9xnYGfFbQPb3FfeUwhM6-3" value="temp = pierwszoj podanej liczbą" style="rounded=1;whiteSpace=wrap;html=1;" vertex="1" parent="aKL1rDs1hcDGGf5aMhH5-1">
          <mxGeometry x="340" y="200" width="120" height="60" as="geometry" />
        </mxCell>
        <mxCell id="LtLO2_QqtycbzJAoh43c-2" value="" style="edgeStyle=orthogonalEdgeStyle;rounded=0;orthogonalLoop=1;jettySize=auto;html=1;" edge="1" parent="aKL1rDs1hcDGGf5aMhH5-1" source="LtLO2_QqtycbzJAoh43c-0" target="LtLO2_QqtycbzJAoh43c-1">
          <mxGeometry relative="1" as="geometry" />
        </mxCell>
        <mxCell id="LtLO2_QqtycbzJAoh43c-0" value="i = 0" style="rounded=1;whiteSpace=wrap;html=1;" vertex="1" parent="aKL1rDs1hcDGGf5aMhH5-1">
          <mxGeometry x="340" y="320" width="120" height="60" as="geometry" />
        </mxCell>
        <mxCell id="LtLO2_QqtycbzJAoh43c-5" value="" style="edgeStyle=orthogonalEdgeStyle;rounded=0;orthogonalLoop=1;jettySize=auto;html=1;" edge="1" parent="aKL1rDs1hcDGGf5aMhH5-1" source="LtLO2_QqtycbzJAoh43c-1">
          <mxGeometry relative="1" as="geometry">
            <mxPoint x="400" y="510" as="targetPoint" />
          </mxGeometry>
        </mxCell>
        <mxCell id="LtLO2_QqtycbzJAoh43c-1" value="dopóki i &amp;lt; niż&amp;nbsp; lilość liczb wykonaj" style="rounded=1;whiteSpace=wrap;html=1;" vertex="1" parent="aKL1rDs1hcDGGf5aMhH5-1">
          <mxGeometry x="340" y="420" width="120" height="60" as="geometry" />
        </mxCell>
        <mxCell id="LtLO2_QqtycbzJAoh43c-15" value="" style="edgeStyle=orthogonalEdgeStyle;rounded=0;orthogonalLoop=1;jettySize=auto;html=1;" edge="1" parent="aKL1rDs1hcDGGf5aMhH5-1" source="LtLO2_QqtycbzJAoh43c-7" target="LtLO2_QqtycbzJAoh43c-14">
          <mxGeometry relative="1" as="geometry" />
        </mxCell>
        <mxCell id="LtLO2_QqtycbzJAoh43c-7" value="i + 1" style="rounded=1;whiteSpace=wrap;html=1;" vertex="1" parent="aKL1rDs1hcDGGf5aMhH5-1">
          <mxGeometry x="670" y="560" width="120" height="60" as="geometry" />
        </mxCell>
        <mxCell id="LtLO2_QqtycbzJAoh43c-12" value="" style="edgeStyle=orthogonalEdgeStyle;rounded=0;orthogonalLoop=1;jettySize=auto;html=1;" edge="1" parent="aKL1rDs1hcDGGf5aMhH5-1" source="LtLO2_QqtycbzJAoh43c-8">
          <mxGeometry relative="1" as="geometry">
            <mxPoint x="660" y="590" as="targetPoint" />
          </mxGeometry>
        </mxCell>
        <mxCell id="LtLO2_QqtycbzJAoh43c-8" value="jeżeli liczba z indexem i == liczbe z indexem i +1&amp;nbsp;" style="rhombus;whiteSpace=wrap;html=1;" vertex="1" parent="aKL1rDs1hcDGGf5aMhH5-1">
          <mxGeometry x="223.75" y="510" width="352.5" height="160" as="geometry" />
        </mxCell>
        <mxCell id="LtLO2_QqtycbzJAoh43c-13" value="Tak&lt;br&gt;" style="text;html=1;align=center;verticalAlign=middle;resizable=0;points=[];autosize=1;strokeColor=none;fillColor=none;" vertex="1" parent="aKL1rDs1hcDGGf5aMhH5-1">
          <mxGeometry x="545" y="540" width="30" height="20" as="geometry" />
        </mxCell>
        <mxCell id="LtLO2_QqtycbzJAoh43c-14" value="temp" style="rounded=1;whiteSpace=wrap;html=1;" vertex="1" parent="aKL1rDs1hcDGGf5aMhH5-1">
          <mxGeometry x="670" y="700" width="120" height="60" as="geometry" />
        </mxCell>
      </root>
    </mxGraphModel>
  </diagram>
  <diagram id="sPGaNXVM2cOn9eKz1mPn" name="Page-11">
    <mxGraphModel dx="1038" dy="1716" grid="1" gridSize="10" guides="1" tooltips="1" connect="1" arrows="1" fold="1" page="1" pageScale="1" pageWidth="827" pageHeight="1169" math="0" shadow="0">
      <root>
        <mxCell id="wMvMQN9NcLVGe3e9bZz8-0" />
        <mxCell id="wMvMQN9NcLVGe3e9bZz8-1" parent="wMvMQN9NcLVGe3e9bZz8-0" />
        <mxCell id="pokTUmCPGxzPzxNQVEMX-0" style="edgeStyle=orthogonalEdgeStyle;rounded=0;orthogonalLoop=1;jettySize=auto;html=1;" parent="wMvMQN9NcLVGe3e9bZz8-1" edge="1">
          <mxGeometry relative="1" as="geometry">
            <mxPoint x="400" y="200" as="targetPoint" />
            <mxPoint x="399.5" y="120" as="sourcePoint" />
            <Array as="points">
              <mxPoint x="400.5" y="120" />
              <mxPoint x="400.5" y="160" />
            </Array>
          </mxGeometry>
        </mxCell>
        <mxCell id="pokTUmCPGxzPzxNQVEMX-1" value="Koniec" style="ellipse;whiteSpace=wrap;html=1;" parent="wMvMQN9NcLVGe3e9bZz8-1" vertex="1">
          <mxGeometry x="120" y="470" width="120" height="80" as="geometry" />
        </mxCell>
        <mxCell id="pokTUmCPGxzPzxNQVEMX-21" value="" style="edgeStyle=orthogonalEdgeStyle;rounded=0;orthogonalLoop=1;jettySize=auto;html=1;" parent="wMvMQN9NcLVGe3e9bZz8-1" source="pokTUmCPGxzPzxNQVEMX-2" target="pokTUmCPGxzPzxNQVEMX-20" edge="1">
          <mxGeometry relative="1" as="geometry" />
        </mxCell>
        <mxCell id="pokTUmCPGxzPzxNQVEMX-2" value="Start" style="ellipse;whiteSpace=wrap;html=1;" parent="wMvMQN9NcLVGe3e9bZz8-1" vertex="1">
          <mxGeometry x="340" y="-30" width="120" height="80" as="geometry" />
        </mxCell>
        <mxCell id="pokTUmCPGxzPzxNQVEMX-3" style="edgeStyle=orthogonalEdgeStyle;rounded=0;orthogonalLoop=1;jettySize=auto;html=1;" parent="wMvMQN9NcLVGe3e9bZz8-1" source="pokTUmCPGxzPzxNQVEMX-4" edge="1">
          <mxGeometry relative="1" as="geometry">
            <mxPoint x="400" y="310" as="targetPoint" />
          </mxGeometry>
        </mxCell>
        <mxCell id="pokTUmCPGxzPzxNQVEMX-4" value="wczytać&amp;nbsp;&lt;span style=&quot;color: rgb(82 , 96 , 105) ; font-family: &amp;#34;roboto&amp;#34; , sans-serif ; font-size: 14px ; text-align: left ; background-color: rgb(255 , 255 , 255)&quot;&gt;liczby podawany z klawiatury&amp;nbsp;&lt;/span&gt;" style="rounded=1;whiteSpace=wrap;html=1;" parent="wMvMQN9NcLVGe3e9bZz8-1" vertex="1">
          <mxGeometry x="340" y="200" width="120" height="60" as="geometry" />
        </mxCell>
        <mxCell id="pokTUmCPGxzPzxNQVEMX-18" style="edgeStyle=orthogonalEdgeStyle;rounded=0;orthogonalLoop=1;jettySize=auto;html=1;" parent="wMvMQN9NcLVGe3e9bZz8-1" source="pokTUmCPGxzPzxNQVEMX-15" target="pokTUmCPGxzPzxNQVEMX-19" edge="1">
          <mxGeometry relative="1" as="geometry">
            <mxPoint x="590" y="290" as="targetPoint" />
          </mxGeometry>
        </mxCell>
        <mxCell id="pokTUmCPGxzPzxNQVEMX-24" style="edgeStyle=orthogonalEdgeStyle;rounded=0;orthogonalLoop=1;jettySize=auto;html=1;" parent="wMvMQN9NcLVGe3e9bZz8-1" source="pokTUmCPGxzPzxNQVEMX-15" edge="1">
          <mxGeometry relative="1" as="geometry">
            <mxPoint x="240" y="340" as="targetPoint" />
          </mxGeometry>
        </mxCell>
        <mxCell id="pokTUmCPGxzPzxNQVEMX-15" value="ta liczba ==&amp;nbsp; 0?" style="rounded=1;whiteSpace=wrap;html=1;" parent="wMvMQN9NcLVGe3e9bZz8-1" vertex="1">
          <mxGeometry x="340" y="310" width="120" height="60" as="geometry" />
        </mxCell>
        <mxCell id="pokTUmCPGxzPzxNQVEMX-17" value="Nie&lt;br&gt;" style="text;html=1;align=center;verticalAlign=middle;resizable=0;points=[];autosize=1;strokeColor=none;fillColor=none;" parent="wMvMQN9NcLVGe3e9bZz8-1" vertex="1">
          <mxGeometry x="470" y="310" width="30" height="20" as="geometry" />
        </mxCell>
        <mxCell id="pokTUmCPGxzPzxNQVEMX-22" style="edgeStyle=orthogonalEdgeStyle;rounded=0;orthogonalLoop=1;jettySize=auto;html=1;" parent="wMvMQN9NcLVGe3e9bZz8-1" source="pokTUmCPGxzPzxNQVEMX-19" edge="1">
          <mxGeometry relative="1" as="geometry">
            <mxPoint x="470" y="220" as="targetPoint" />
            <Array as="points">
              <mxPoint x="660" y="220" />
            </Array>
          </mxGeometry>
        </mxCell>
        <mxCell id="pokTUmCPGxzPzxNQVEMX-19" value="&lt;br&gt;sum = sum + 1" style="rounded=1;whiteSpace=wrap;html=1;" parent="wMvMQN9NcLVGe3e9bZz8-1" vertex="1">
          <mxGeometry x="600" y="310" width="120" height="60" as="geometry" />
        </mxCell>
        <mxCell id="pokTUmCPGxzPzxNQVEMX-20" value="sum = 0" style="rounded=1;whiteSpace=wrap;html=1;" parent="wMvMQN9NcLVGe3e9bZz8-1" vertex="1">
          <mxGeometry x="340" y="70" width="120" height="60" as="geometry" />
        </mxCell>
        <mxCell id="pokTUmCPGxzPzxNQVEMX-23" value="Tak&lt;br&gt;" style="text;html=1;align=center;verticalAlign=middle;resizable=0;points=[];autosize=1;strokeColor=none;fillColor=none;" parent="wMvMQN9NcLVGe3e9bZz8-1" vertex="1">
          <mxGeometry x="285" y="300" width="30" height="20" as="geometry" />
        </mxCell>
        <mxCell id="pokTUmCPGxzPzxNQVEMX-27" value="" style="edgeStyle=orthogonalEdgeStyle;rounded=0;orthogonalLoop=1;jettySize=auto;html=1;" parent="wMvMQN9NcLVGe3e9bZz8-1" source="pokTUmCPGxzPzxNQVEMX-26" target="pokTUmCPGxzPzxNQVEMX-1" edge="1">
          <mxGeometry relative="1" as="geometry" />
        </mxCell>
        <mxCell id="pokTUmCPGxzPzxNQVEMX-26" value="wyswietl sumę" style="rounded=1;whiteSpace=wrap;html=1;" parent="wMvMQN9NcLVGe3e9bZz8-1" vertex="1">
          <mxGeometry x="120" y="310" width="120" height="60" as="geometry" />
        </mxCell>
      </root>
    </mxGraphModel>
  </diagram>
  <diagram id="6Fv_XMjSadoN5HEU-GGy" name="Page-14">
    <mxGraphModel dx="1038" dy="1716" grid="1" gridSize="10" guides="1" tooltips="1" connect="1" arrows="1" fold="1" page="1" pageScale="1" pageWidth="827" pageHeight="1169" math="0" shadow="0">
      <root>
        <mxCell id="79LwgrBExLo1AoiJjNlH-0" />
        <mxCell id="79LwgrBExLo1AoiJjNlH-1" parent="79LwgrBExLo1AoiJjNlH-0" />
        <mxCell id="u4iKw2KjDFuvI7e0j9rX-0" style="edgeStyle=orthogonalEdgeStyle;rounded=0;orthogonalLoop=1;jettySize=auto;html=1;" edge="1" parent="79LwgrBExLo1AoiJjNlH-1">
          <mxGeometry relative="1" as="geometry">
            <mxPoint x="400" y="200" as="targetPoint" />
            <mxPoint x="399.5" y="120" as="sourcePoint" />
            <Array as="points">
              <mxPoint x="400.5" y="120" />
              <mxPoint x="400.5" y="160" />
            </Array>
          </mxGeometry>
        </mxCell>
        <mxCell id="u4iKw2KjDFuvI7e0j9rX-1" value="Koniec" style="ellipse;whiteSpace=wrap;html=1;" vertex="1" parent="79LwgrBExLo1AoiJjNlH-1">
          <mxGeometry x="340" y="490" width="120" height="80" as="geometry" />
        </mxCell>
        <mxCell id="u4iKw2KjDFuvI7e0j9rX-2" value="" style="edgeStyle=orthogonalEdgeStyle;rounded=0;orthogonalLoop=1;jettySize=auto;html=1;" edge="1" parent="79LwgrBExLo1AoiJjNlH-1" source="u4iKw2KjDFuvI7e0j9rX-3" target="u4iKw2KjDFuvI7e0j9rX-12">
          <mxGeometry relative="1" as="geometry" />
        </mxCell>
        <mxCell id="u4iKw2KjDFuvI7e0j9rX-3" value="Start" style="ellipse;whiteSpace=wrap;html=1;" vertex="1" parent="79LwgrBExLo1AoiJjNlH-1">
          <mxGeometry x="340" y="-30" width="120" height="80" as="geometry" />
        </mxCell>
        <mxCell id="u4iKw2KjDFuvI7e0j9rX-4" style="edgeStyle=orthogonalEdgeStyle;rounded=0;orthogonalLoop=1;jettySize=auto;html=1;" edge="1" parent="79LwgrBExLo1AoiJjNlH-1" source="u4iKw2KjDFuvI7e0j9rX-5">
          <mxGeometry relative="1" as="geometry">
            <mxPoint x="400" y="310" as="targetPoint" />
          </mxGeometry>
        </mxCell>
        <mxCell id="u4iKw2KjDFuvI7e0j9rX-5" value="&lt;div style=&quot;text-align: left&quot;&gt;&lt;span&gt;res = ((x * y) * glęb kolora) * &lt;/span&gt;&lt;span style=&quot;font-size: 16px&quot;&gt;&lt;font color=&quot;#bdc1c6&quot; face=&quot;arial, sans-serif&quot;&gt;0.000125&lt;/font&gt;&lt;/span&gt;&lt;/div&gt;" style="rounded=1;whiteSpace=wrap;html=1;" vertex="1" parent="79LwgrBExLo1AoiJjNlH-1">
          <mxGeometry x="340" y="200" width="120" height="60" as="geometry" />
        </mxCell>
        <mxCell id="u4iKw2KjDFuvI7e0j9rX-12" value="podaj x, y, i glęb kolora" style="rounded=1;whiteSpace=wrap;html=1;" vertex="1" parent="79LwgrBExLo1AoiJjNlH-1">
          <mxGeometry x="340" y="90" width="120" height="60" as="geometry" />
        </mxCell>
        <mxCell id="u4iKw2KjDFuvI7e0j9rX-19" style="edgeStyle=orthogonalEdgeStyle;rounded=0;orthogonalLoop=1;jettySize=auto;html=1;" edge="1" parent="79LwgrBExLo1AoiJjNlH-1" source="u4iKw2KjDFuvI7e0j9rX-18" target="u4iKw2KjDFuvI7e0j9rX-20">
          <mxGeometry relative="1" as="geometry">
            <mxPoint x="620" y="190" as="targetPoint" />
            <Array as="points">
              <mxPoint x="610" y="350" />
            </Array>
          </mxGeometry>
        </mxCell>
        <mxCell id="u4iKw2KjDFuvI7e0j9rX-22" style="edgeStyle=orthogonalEdgeStyle;rounded=0;orthogonalLoop=1;jettySize=auto;html=1;" edge="1" parent="79LwgrBExLo1AoiJjNlH-1" source="u4iKw2KjDFuvI7e0j9rX-18">
          <mxGeometry relative="1" as="geometry">
            <mxPoint x="400" y="480" as="targetPoint" />
          </mxGeometry>
        </mxCell>
        <mxCell id="u4iKw2KjDFuvI7e0j9rX-18" value="if (res &amp;gt;&lt;span style=&quot;color: rgb(82 , 96 , 105) ; font-family: &amp;#34;roboto&amp;#34; , sans-serif ; font-size: 14px ; text-align: left ; background-color: rgb(255 , 255 , 255)&quot;&gt;512kB&amp;nbsp;&lt;/span&gt;&lt;br&gt;)" style="rhombus;whiteSpace=wrap;html=1;" vertex="1" parent="79LwgrBExLo1AoiJjNlH-1">
          <mxGeometry x="360" y="310" width="80" height="80" as="geometry" />
        </mxCell>
        <mxCell id="u4iKw2KjDFuvI7e0j9rX-21" style="edgeStyle=orthogonalEdgeStyle;rounded=0;orthogonalLoop=1;jettySize=auto;html=1;entryX=1;entryY=0.5;entryDx=0;entryDy=0;" edge="1" parent="79LwgrBExLo1AoiJjNlH-1" source="u4iKw2KjDFuvI7e0j9rX-20" target="u4iKw2KjDFuvI7e0j9rX-12">
          <mxGeometry relative="1" as="geometry">
            <Array as="points">
              <mxPoint x="610" y="120" />
            </Array>
          </mxGeometry>
        </mxCell>
        <mxCell id="u4iKw2KjDFuvI7e0j9rX-20" value="pilłk za dużyj" style="rounded=1;whiteSpace=wrap;html=1;" vertex="1" parent="79LwgrBExLo1AoiJjNlH-1">
          <mxGeometry x="560" y="150" width="120" height="60" as="geometry" />
        </mxCell>
        <mxCell id="u4iKw2KjDFuvI7e0j9rX-23" value="Tak&lt;br&gt;" style="text;html=1;align=center;verticalAlign=middle;resizable=0;points=[];autosize=1;strokeColor=none;fillColor=none;" vertex="1" parent="79LwgrBExLo1AoiJjNlH-1">
          <mxGeometry x="445" y="320" width="30" height="20" as="geometry" />
        </mxCell>
        <mxCell id="u4iKw2KjDFuvI7e0j9rX-24" value="Nie&lt;br&gt;" style="text;html=1;align=center;verticalAlign=middle;resizable=0;points=[];autosize=1;strokeColor=none;fillColor=none;" vertex="1" parent="79LwgrBExLo1AoiJjNlH-1">
          <mxGeometry x="355" y="390" width="30" height="20" as="geometry" />
        </mxCell>
      </root>
    </mxGraphModel>
  </diagram>
  <diagram id="joLTgXWZF3OzJxPyEBzV" name="Page-16">
    <mxGraphModel dx="1865" dy="1716" grid="1" gridSize="10" guides="1" tooltips="1" connect="1" arrows="1" fold="1" page="1" pageScale="1" pageWidth="827" pageHeight="1169" math="0" shadow="0">
      <root>
        <mxCell id="2qeozDM-H88v3Ex3HTWA-0" />
        <mxCell id="2qeozDM-H88v3Ex3HTWA-1" parent="2qeozDM-H88v3Ex3HTWA-0" />
        <mxCell id="Om2oUM7ZEKjYZa6gYdcd-1" value="Koniec" style="ellipse;whiteSpace=wrap;html=1;" vertex="1" parent="2qeozDM-H88v3Ex3HTWA-1">
          <mxGeometry x="350" y="630" width="120" height="80" as="geometry" />
        </mxCell>
        <mxCell id="Om2oUM7ZEKjYZa6gYdcd-2" value="" style="edgeStyle=orthogonalEdgeStyle;rounded=0;orthogonalLoop=1;jettySize=auto;html=1;" edge="1" parent="2qeozDM-H88v3Ex3HTWA-1" source="Om2oUM7ZEKjYZa6gYdcd-3">
          <mxGeometry relative="1" as="geometry">
            <mxPoint x="400" y="90" as="targetPoint" />
          </mxGeometry>
        </mxCell>
        <mxCell id="Om2oUM7ZEKjYZa6gYdcd-3" value="Start" style="ellipse;whiteSpace=wrap;html=1;" vertex="1" parent="2qeozDM-H88v3Ex3HTWA-1">
          <mxGeometry x="340" y="-30" width="120" height="80" as="geometry" />
        </mxCell>
        <mxCell id="Om2oUM7ZEKjYZa6gYdcd-17" value="" style="edgeStyle=orthogonalEdgeStyle;rounded=0;orthogonalLoop=1;jettySize=auto;html=1;" edge="1" parent="2qeozDM-H88v3Ex3HTWA-1" source="Om2oUM7ZEKjYZa6gYdcd-13" target="Om2oUM7ZEKjYZa6gYdcd-15">
          <mxGeometry relative="1" as="geometry" />
        </mxCell>
        <mxCell id="Om2oUM7ZEKjYZa6gYdcd-13" value="wprowadź kartę i pin dla karty" style="shape=parallelogram;perimeter=parallelogramPerimeter;whiteSpace=wrap;html=1;fixedSize=1;" vertex="1" parent="2qeozDM-H88v3Ex3HTWA-1">
          <mxGeometry x="280" y="90" width="260" height="40" as="geometry" />
        </mxCell>
        <mxCell id="Om2oUM7ZEKjYZa6gYdcd-14" style="edgeStyle=orthogonalEdgeStyle;rounded=0;orthogonalLoop=1;jettySize=auto;html=1;exitX=0.5;exitY=1;exitDx=0;exitDy=0;" edge="1" parent="2qeozDM-H88v3Ex3HTWA-1" source="Om2oUM7ZEKjYZa6gYdcd-13" target="Om2oUM7ZEKjYZa6gYdcd-13">
          <mxGeometry relative="1" as="geometry" />
        </mxCell>
        <mxCell id="Om2oUM7ZEKjYZa6gYdcd-18" style="edgeStyle=orthogonalEdgeStyle;rounded=0;orthogonalLoop=1;jettySize=auto;html=1;" edge="1" parent="2qeozDM-H88v3Ex3HTWA-1" source="Om2oUM7ZEKjYZa6gYdcd-15" target="Om2oUM7ZEKjYZa6gYdcd-19">
          <mxGeometry relative="1" as="geometry">
            <mxPoint x="410" y="270" as="targetPoint" />
          </mxGeometry>
        </mxCell>
        <mxCell id="Om2oUM7ZEKjYZa6gYdcd-15" value="int&amp;nbsp; pin= cin&lt;br&gt;int i, j, kontoKlienta" style="rounded=1;whiteSpace=wrap;html=1;" vertex="1" parent="2qeozDM-H88v3Ex3HTWA-1">
          <mxGeometry x="350" y="170" width="120" height="60" as="geometry" />
        </mxCell>
        <mxCell id="Om2oUM7ZEKjYZa6gYdcd-20" style="edgeStyle=orthogonalEdgeStyle;rounded=0;orthogonalLoop=1;jettySize=auto;html=1;" edge="1" parent="2qeozDM-H88v3Ex3HTWA-1" source="Om2oUM7ZEKjYZa6gYdcd-19">
          <mxGeometry relative="1" as="geometry">
            <mxPoint x="560" y="310" as="targetPoint" />
          </mxGeometry>
        </mxCell>
        <mxCell id="Om2oUM7ZEKjYZa6gYdcd-31" value="" style="edgeStyle=orthogonalEdgeStyle;rounded=0;orthogonalLoop=1;jettySize=auto;html=1;" edge="1" parent="2qeozDM-H88v3Ex3HTWA-1" source="Om2oUM7ZEKjYZa6gYdcd-19" target="Om2oUM7ZEKjYZa6gYdcd-30">
          <mxGeometry relative="1" as="geometry" />
        </mxCell>
        <mxCell id="Om2oUM7ZEKjYZa6gYdcd-19" value="if (pin != 0000)" style="rhombus;whiteSpace=wrap;html=1;" vertex="1" parent="2qeozDM-H88v3Ex3HTWA-1">
          <mxGeometry x="370" y="270" width="80" height="80" as="geometry" />
        </mxCell>
        <mxCell id="Om2oUM7ZEKjYZa6gYdcd-22" style="edgeStyle=orthogonalEdgeStyle;rounded=0;orthogonalLoop=1;jettySize=auto;html=1;" edge="1" parent="2qeozDM-H88v3Ex3HTWA-1" source="Om2oUM7ZEKjYZa6gYdcd-21">
          <mxGeometry relative="1" as="geometry">
            <mxPoint x="620" y="230" as="targetPoint" />
          </mxGeometry>
        </mxCell>
        <mxCell id="Om2oUM7ZEKjYZa6gYdcd-21" value="i++" style="rounded=0;whiteSpace=wrap;html=1;" vertex="1" parent="2qeozDM-H88v3Ex3HTWA-1">
          <mxGeometry x="560" y="290" width="120" height="60" as="geometry" />
        </mxCell>
        <mxCell id="Om2oUM7ZEKjYZa6gYdcd-24" style="edgeStyle=orthogonalEdgeStyle;rounded=0;orthogonalLoop=1;jettySize=auto;html=1;" edge="1" parent="2qeozDM-H88v3Ex3HTWA-1" source="Om2oUM7ZEKjYZa6gYdcd-23">
          <mxGeometry relative="1" as="geometry">
            <mxPoint x="480" y="200" as="targetPoint" />
          </mxGeometry>
        </mxCell>
        <mxCell id="Om2oUM7ZEKjYZa6gYdcd-26" style="edgeStyle=orthogonalEdgeStyle;rounded=0;orthogonalLoop=1;jettySize=auto;html=1;entryX=1;entryY=0.5;entryDx=0;entryDy=0;" edge="1" parent="2qeozDM-H88v3Ex3HTWA-1" source="Om2oUM7ZEKjYZa6gYdcd-23" target="Om2oUM7ZEKjYZa6gYdcd-1">
          <mxGeometry relative="1" as="geometry">
            <mxPoint x="470" y="540" as="targetPoint" />
            <Array as="points">
              <mxPoint x="750" y="200" />
              <mxPoint x="750" y="670" />
            </Array>
          </mxGeometry>
        </mxCell>
        <mxCell id="Om2oUM7ZEKjYZa6gYdcd-23" value="i == 3 ?" style="rhombus;whiteSpace=wrap;html=1;" vertex="1" parent="2qeozDM-H88v3Ex3HTWA-1">
          <mxGeometry x="580" y="160" width="80" height="80" as="geometry" />
        </mxCell>
        <mxCell id="Om2oUM7ZEKjYZa6gYdcd-25" value="Nie&lt;br&gt;" style="text;html=1;align=center;verticalAlign=middle;resizable=0;points=[];autosize=1;strokeColor=none;fillColor=none;" vertex="1" parent="2qeozDM-H88v3Ex3HTWA-1">
          <mxGeometry x="545" y="170" width="30" height="20" as="geometry" />
        </mxCell>
        <mxCell id="Om2oUM7ZEKjYZa6gYdcd-27" value="Tak" style="text;html=1;align=center;verticalAlign=middle;resizable=0;points=[];autosize=1;strokeColor=none;fillColor=none;" vertex="1" parent="2qeozDM-H88v3Ex3HTWA-1">
          <mxGeometry x="445" y="280" width="30" height="20" as="geometry" />
        </mxCell>
        <mxCell id="Om2oUM7ZEKjYZa6gYdcd-28" value="Tak" style="text;html=1;align=center;verticalAlign=middle;resizable=0;points=[];autosize=1;strokeColor=none;fillColor=none;" vertex="1" parent="2qeozDM-H88v3Ex3HTWA-1">
          <mxGeometry x="665" y="180" width="30" height="20" as="geometry" />
        </mxCell>
        <mxCell id="Om2oUM7ZEKjYZa6gYdcd-29" value="Nie" style="text;html=1;align=center;verticalAlign=middle;resizable=0;points=[];autosize=1;strokeColor=none;fillColor=none;" vertex="1" parent="2qeozDM-H88v3Ex3HTWA-1">
          <mxGeometry x="340" y="270" width="30" height="20" as="geometry" />
        </mxCell>
        <mxCell id="Om2oUM7ZEKjYZa6gYdcd-33" value="" style="edgeStyle=orthogonalEdgeStyle;rounded=0;orthogonalLoop=1;jettySize=auto;html=1;" edge="1" parent="2qeozDM-H88v3Ex3HTWA-1" source="Om2oUM7ZEKjYZa6gYdcd-30" target="Om2oUM7ZEKjYZa6gYdcd-32">
          <mxGeometry relative="1" as="geometry" />
        </mxCell>
        <mxCell id="Om2oUM7ZEKjYZa6gYdcd-30" value="podaj kwotę" style="shape=parallelogram;perimeter=parallelogramPerimeter;whiteSpace=wrap;html=1;fixedSize=1;" vertex="1" parent="2qeozDM-H88v3Ex3HTWA-1">
          <mxGeometry x="190" y="295" width="120" height="30" as="geometry" />
        </mxCell>
        <mxCell id="Om2oUM7ZEKjYZa6gYdcd-34" style="edgeStyle=orthogonalEdgeStyle;rounded=0;orthogonalLoop=1;jettySize=auto;html=1;" edge="1" parent="2qeozDM-H88v3Ex3HTWA-1" source="Om2oUM7ZEKjYZa6gYdcd-32">
          <mxGeometry relative="1" as="geometry">
            <mxPoint x="120" y="420" as="targetPoint" />
          </mxGeometry>
        </mxCell>
        <mxCell id="Om2oUM7ZEKjYZa6gYdcd-43" style="edgeStyle=orthogonalEdgeStyle;rounded=0;orthogonalLoop=1;jettySize=auto;html=1;" edge="1" parent="2qeozDM-H88v3Ex3HTWA-1" source="Om2oUM7ZEKjYZa6gYdcd-32">
          <mxGeometry relative="1" as="geometry">
            <mxPoint x="370" y="420" as="targetPoint" />
          </mxGeometry>
        </mxCell>
        <mxCell id="Om2oUM7ZEKjYZa6gYdcd-32" value="if (kwota % 50 == 0)" style="rhombus;whiteSpace=wrap;html=1;" vertex="1" parent="2qeozDM-H88v3Ex3HTWA-1">
          <mxGeometry x="185" y="380" width="130" height="80" as="geometry" />
        </mxCell>
        <mxCell id="Om2oUM7ZEKjYZa6gYdcd-36" style="edgeStyle=orthogonalEdgeStyle;rounded=0;orthogonalLoop=1;jettySize=auto;html=1;" edge="1" parent="2qeozDM-H88v3Ex3HTWA-1" source="Om2oUM7ZEKjYZa6gYdcd-35">
          <mxGeometry relative="1" as="geometry">
            <mxPoint x="60" y="340" as="targetPoint" />
          </mxGeometry>
        </mxCell>
        <mxCell id="Om2oUM7ZEKjYZa6gYdcd-35" value="j++" style="rounded=0;whiteSpace=wrap;html=1;" vertex="1" parent="2qeozDM-H88v3Ex3HTWA-1">
          <mxGeometry y="390" width="120" height="60" as="geometry" />
        </mxCell>
        <mxCell id="Om2oUM7ZEKjYZa6gYdcd-39" style="edgeStyle=orthogonalEdgeStyle;rounded=0;orthogonalLoop=1;jettySize=auto;html=1;" edge="1" parent="2qeozDM-H88v3Ex3HTWA-1" source="Om2oUM7ZEKjYZa6gYdcd-38" target="Om2oUM7ZEKjYZa6gYdcd-30">
          <mxGeometry relative="1" as="geometry" />
        </mxCell>
        <mxCell id="Om2oUM7ZEKjYZa6gYdcd-41" style="edgeStyle=orthogonalEdgeStyle;rounded=0;orthogonalLoop=1;jettySize=auto;html=1;entryX=0;entryY=0.5;entryDx=0;entryDy=0;" edge="1" parent="2qeozDM-H88v3Ex3HTWA-1" source="Om2oUM7ZEKjYZa6gYdcd-38" target="Om2oUM7ZEKjYZa6gYdcd-1">
          <mxGeometry relative="1" as="geometry">
            <mxPoint x="-70" y="670" as="targetPoint" />
            <Array as="points">
              <mxPoint x="-70" y="310" />
              <mxPoint x="-70" y="670" />
            </Array>
          </mxGeometry>
        </mxCell>
        <mxCell id="Om2oUM7ZEKjYZa6gYdcd-38" value="j == 3 ?" style="rhombus;whiteSpace=wrap;html=1;" vertex="1" parent="2qeozDM-H88v3Ex3HTWA-1">
          <mxGeometry x="20" y="270" width="80" height="80" as="geometry" />
        </mxCell>
        <mxCell id="Om2oUM7ZEKjYZa6gYdcd-40" value="Nie" style="text;html=1;align=center;verticalAlign=middle;resizable=0;points=[];autosize=1;strokeColor=none;fillColor=none;" vertex="1" parent="2qeozDM-H88v3Ex3HTWA-1">
          <mxGeometry x="85" y="290" width="30" height="20" as="geometry" />
        </mxCell>
        <mxCell id="Om2oUM7ZEKjYZa6gYdcd-42" value="Nie" style="text;html=1;align=center;verticalAlign=middle;resizable=0;points=[];autosize=1;strokeColor=none;fillColor=none;" vertex="1" parent="2qeozDM-H88v3Ex3HTWA-1">
          <mxGeometry x="185" y="380" width="30" height="20" as="geometry" />
        </mxCell>
        <mxCell id="Om2oUM7ZEKjYZa6gYdcd-44" value="Tak" style="text;html=1;align=center;verticalAlign=middle;resizable=0;points=[];autosize=1;strokeColor=none;fillColor=none;" vertex="1" parent="2qeozDM-H88v3Ex3HTWA-1">
          <mxGeometry x="-5" y="280" width="30" height="20" as="geometry" />
        </mxCell>
        <mxCell id="Om2oUM7ZEKjYZa6gYdcd-45" value="Tak" style="text;html=1;align=center;verticalAlign=middle;resizable=0;points=[];autosize=1;strokeColor=none;fillColor=none;" vertex="1" parent="2qeozDM-H88v3Ex3HTWA-1">
          <mxGeometry x="305" y="380" width="30" height="20" as="geometry" />
        </mxCell>
        <mxCell id="Om2oUM7ZEKjYZa6gYdcd-47" style="edgeStyle=orthogonalEdgeStyle;rounded=0;orthogonalLoop=1;jettySize=auto;html=1;" edge="1" parent="2qeozDM-H88v3Ex3HTWA-1" source="Om2oUM7ZEKjYZa6gYdcd-46">
          <mxGeometry relative="1" as="geometry">
            <mxPoint x="500" y="420" as="targetPoint" />
          </mxGeometry>
        </mxCell>
        <mxCell id="Om2oUM7ZEKjYZa6gYdcd-52" value="" style="edgeStyle=orthogonalEdgeStyle;rounded=0;orthogonalLoop=1;jettySize=auto;html=1;" edge="1" parent="2qeozDM-H88v3Ex3HTWA-1" source="Om2oUM7ZEKjYZa6gYdcd-46" target="Om2oUM7ZEKjYZa6gYdcd-51">
          <mxGeometry relative="1" as="geometry" />
        </mxCell>
        <mxCell id="Om2oUM7ZEKjYZa6gYdcd-46" value="if (kwota &amp;lt; kontoKlienta)" style="rhombus;whiteSpace=wrap;html=1;" vertex="1" parent="2qeozDM-H88v3Ex3HTWA-1">
          <mxGeometry x="370" y="380" width="80" height="80" as="geometry" />
        </mxCell>
        <mxCell id="Om2oUM7ZEKjYZa6gYdcd-48" value="Tak" style="text;html=1;align=center;verticalAlign=middle;resizable=0;points=[];autosize=1;strokeColor=none;fillColor=none;" vertex="1" parent="2qeozDM-H88v3Ex3HTWA-1">
          <mxGeometry x="445" y="390" width="30" height="20" as="geometry" />
        </mxCell>
        <mxCell id="Om2oUM7ZEKjYZa6gYdcd-50" value="Nie" style="text;html=1;align=center;verticalAlign=middle;resizable=0;points=[];autosize=1;strokeColor=none;fillColor=none;" vertex="1" parent="2qeozDM-H88v3Ex3HTWA-1">
          <mxGeometry x="375" y="450" width="30" height="20" as="geometry" />
        </mxCell>
        <mxCell id="Om2oUM7ZEKjYZa6gYdcd-55" value="" style="edgeStyle=orthogonalEdgeStyle;rounded=0;orthogonalLoop=1;jettySize=auto;html=1;" edge="1" parent="2qeozDM-H88v3Ex3HTWA-1" source="Om2oUM7ZEKjYZa6gYdcd-51" target="Om2oUM7ZEKjYZa6gYdcd-1">
          <mxGeometry relative="1" as="geometry" />
        </mxCell>
        <mxCell id="Om2oUM7ZEKjYZa6gYdcd-51" value="&lt;span&gt;wyswietl że Pan/i nie ma wystarczajonce pienędz na koncie&lt;/span&gt;" style="shape=parallelogram;perimeter=parallelogramPerimeter;whiteSpace=wrap;html=1;fixedSize=1;" vertex="1" parent="2qeozDM-H88v3Ex3HTWA-1">
          <mxGeometry x="350" y="500" width="120" height="60" as="geometry" />
        </mxCell>
        <mxCell id="Om2oUM7ZEKjYZa6gYdcd-54" style="edgeStyle=orthogonalEdgeStyle;rounded=0;orthogonalLoop=1;jettySize=auto;html=1;" edge="1" parent="2qeozDM-H88v3Ex3HTWA-1" source="Om2oUM7ZEKjYZa6gYdcd-53">
          <mxGeometry relative="1" as="geometry">
            <mxPoint x="410" y="600" as="targetPoint" />
            <Array as="points">
              <mxPoint x="560" y="600" />
            </Array>
          </mxGeometry>
        </mxCell>
        <mxCell id="Om2oUM7ZEKjYZa6gYdcd-53" value="&lt;span&gt;wydaj pieniążki&lt;/span&gt;" style="shape=parallelogram;perimeter=parallelogramPerimeter;whiteSpace=wrap;html=1;fixedSize=1;" vertex="1" parent="2qeozDM-H88v3Ex3HTWA-1">
          <mxGeometry x="500" y="390" width="120" height="60" as="geometry" />
        </mxCell>
      </root>
    </mxGraphModel>
  </diagram>
</mxfile>
